<?xml version="1.0" standalone="no"?>
 <!DOCTYPE svg PUBLIC "-//W3C//DTD SVG 1.1//EN" 
 "http://www.w3.org/Graphics/SVG/1.1/DTD/svg11.dtd"> 
<svg
  xmlns:svg="http://www.w3.org/2000/svg"
  xmlns="http://www.w3.org/2000/svg"
  xmlns:xlink="http://www.w3.org/1999/xlink"
  version="1.1"
  width="5.024120cm" height="6.223000cm" viewBox="0 0 19780 24500">
<title>SVG Picture created as aprs-ptt-B_SilkS.svg date 2020/09/09 01:23:01 </title>
  <desc>Picture generated by PCBNEW </desc>
<g style="fill:#000000; fill-opacity:1;stroke:#000000; stroke-opacity:1;
stroke-linecap:round; stroke-linejoin:round;"
 transform="translate(0 0) scale(1 1)">
</g>
<g style="fill:#000000; fill-opacity:0.0; 
stroke:#000000; stroke-width:-0.000393701; stroke-opacity:1; 
stroke-linecap:round; stroke-linejoin:round;">
</g>
<g style="fill:#840084; fill-opacity:0.0; 
stroke:#840084; stroke-width:-0.000393701; stroke-opacity:1; 
stroke-linecap:round; stroke-linejoin:round;">
</g>
<g style="fill:#840084; fill-opacity:0.0; 
stroke:#840084; stroke-width:73.8189; stroke-opacity:1; 
stroke-linecap:round; stroke-linejoin:round;">
<g transform="rotate(-90 9256.89 8173.62)">
<text x="9256.89" y="8321.26"
textLength="2509.17" font-size="393.701" lengthAdjust="spacingAndGlyphs"
text-anchor="middle" opacity="0">PIRATES OF</text>
</g>
<path d="M9390 6971
L9095 6971
L9095 7083
L9109 7112
L9123 7126
L9151 7140
L9193 7140
L9221 7126
L9235 7112
L9249 7083
L9249 6971
" />
<path d="M9390 7266
L9095 7266
" />
<path d="M9390 7576
L9249 7477
" />
<path d="M9390 7407
L9095 7407
L9095 7519
L9109 7547
L9123 7561
L9151 7576
L9193 7576
L9221 7561
L9235 7547
L9249 7519
L9249 7407
" />
<path d="M9306 7688
L9306 7829
" />
<path d="M9390 7660
L9095 7758
L9390 7857
" />
<path d="M9095 7913
L9095 8082
" />
<path d="M9390 7997
L9095 7997
" />
<path d="M9235 8180
L9235 8279
" />
<path d="M9390 8321
L9390 8180
L9095 8180
L9095 8321
" />
<path d="M9376 8433
L9390 8475
L9390 8546
L9376 8574
L9362 8588
L9334 8602
L9306 8602
L9277 8588
L9263 8574
L9249 8546
L9235 8489
L9221 8461
L9207 8447
L9179 8433
L9151 8433
L9123 8447
L9109 8461
L9095 8489
L9095 8560
L9109 8602
" />
<path d="M9095 9010
L9095 9066
L9109 9094
L9137 9122
L9193 9136
L9292 9136
L9348 9122
L9376 9094
L9390 9066
L9390 9010
L9376 8982
L9348 8953
L9292 8939
L9193 8939
L9137 8953
L9109 8982
L9095 9010
" />
<path d="M9235 9361
L9235 9263
" />
<path d="M9390 9263
L9095 9263
L9095 9403
" />
<g transform="rotate(-90 9773.62 8173.62)">
<text x="9773.62" y="8321.26"
textLength="2266.24" font-size="393.701" lengthAdjust="spacingAndGlyphs"
text-anchor="middle" opacity="0">THE GREAT</text>
</g>
<path d="M9611 7020
L9611 7189
" />
<path d="M9907 7105
L9611 7105
" />
<path d="M9907 7287
L9611 7287
" />
<path d="M9752 7287
L9752 7456
" />
<path d="M9907 7456
L9611 7456
" />
<path d="M9752 7597
L9752 7695
" />
<path d="M9907 7737
L9907 7597
L9611 7597
L9611 7737
" />
<path d="M9625 8243
L9611 8215
L9611 8173
L9625 8131
L9654 8103
L9682 8089
L9738 8075
L9780 8075
L9836 8089
L9865 8103
L9893 8131
L9907 8173
L9907 8201
L9893 8243
L9879 8257
L9780 8257
L9780 8201
" />
<path d="M9907 8553
L9766 8454
" />
<path d="M9907 8384
L9611 8384
L9611 8497
L9625 8525
L9640 8539
L9668 8553
L9710 8553
L9738 8539
L9752 8525
L9766 8497
L9766 8384
" />
<path d="M9752 8679
L9752 8778
" />
<path d="M9907 8820
L9907 8679
L9611 8679
L9611 8820
" />
<path d="M9822 8932
L9822 9073
" />
<path d="M9907 8904
L9611 9003
L9907 9101
" />
<path d="M9611 9157
L9611 9326
" />
<path d="M9907 9242
L9611 9242
" />
<g transform="rotate(-90 10290.4 8173.62)">
<text x="10290.4" y="8321.26"
textLength="2181.88" font-size="393.701" lengthAdjust="spacingAndGlyphs"
text-anchor="middle" opacity="0">SALT LAKE</text>
</g>
<path d="M10409 7090
L10423 7133
L10423 7203
L10409 7231
L10395 7245
L10367 7259
L10339 7259
L10311 7245
L10297 7231
L10283 7203
L10269 7147
L10255 7119
L10241 7105
L10213 7090
L10184 7090
L10156 7105
L10142 7119
L10128 7147
L10128 7217
L10142 7259
" />
<path d="M10339 7372
L10339 7512
" />
<path d="M10423 7344
L10128 7442
L10423 7540
" />
<path d="M10423 7779
L10423 7639
L10128 7639
" />
<path d="M10128 7836
L10128 8004
" />
<path d="M10423 7920
L10128 7920
" />
<path d="M10423 8468
L10423 8328
L10128 8328
" />
<path d="M10339 8553
L10339 8693
" />
<path d="M10423 8525
L10128 8623
L10423 8721
" />
<path d="M10423 8820
L10128 8820
" />
<path d="M10423 8989
L10255 8862
" />
<path d="M10128 8989
L10297 8820
" />
<path d="M10269 9115
L10269 9214
" />
<path d="M10423 9256
L10423 9115
L10128 9115
L10128 9256
" />
</g>
<g style="fill:#840084; fill-opacity:0.0; 
stroke:#840084; stroke-width:47.2441; stroke-opacity:1; 
stroke-linecap:round; stroke-linejoin:round;">
<path d="M17773 2073
L17773 2023
" />
<path d="M17773 2173
L17773 2073
" />
<path d="M17073 2173
L17773 2173
" />
<path d="M17073 2023
L17073 2173
" />
</g>
<g style="fill:#840084; fill-opacity:0.0; 
stroke:#840084; stroke-width:27.5591; stroke-opacity:1; 
stroke-linecap:round; stroke-linejoin:round;">
<g transform="rotate(-90 17373.6 1373.62)">
<text x="17373.6" y="1472.05"
textLength="1263.24" font-size="262.467" lengthAdjust="spacingAndGlyphs"
text-anchor="middle" opacity="0">5V INPUT</text>
</g>
<path d="M17265 834
L17265 740
L17359 731
L17350 740
L17340 759
L17340 806
L17350 825
L17359 834
L17378 844
L17425 844
L17443 834
L17453 825
L17462 806
L17462 759
L17453 740
L17443 731
" />
<path d="M17265 900
L17462 965
L17265 1031
" />
<path d="M17462 1247
L17265 1247
" />
<path d="M17462 1340
L17265 1340
L17462 1453
L17265 1453
" />
<path d="M17462 1547
L17265 1547
L17265 1622
L17275 1640
L17284 1650
L17303 1659
L17331 1659
L17350 1650
L17359 1640
L17368 1622
L17368 1547
" />
<path d="M17265 1743
L17425 1743
L17443 1753
L17453 1762
L17462 1781
L17462 1818
L17453 1837
L17443 1847
L17425 1856
L17265 1856
" />
<path d="M17265 1921
L17265 2034
" />
<path d="M17462 1978
L17265 1978
" />
<g transform="rotate(-90 18073.6 20273.6)">
<text x="18073.6" y="20372"
textLength="1510.85" font-size="262.467" lengthAdjust="spacingAndGlyphs"
text-anchor="middle" opacity="0">12V INPUT</text>
</g>
<path d="M18162 19650
L18162 19537
" />
<path d="M18162 19594
L17965 19594
L17993 19575
L18012 19556
L18022 19537
" />
<path d="M17984 19725
L17975 19734
L17965 19753
L17965 19800
L17975 19818
L17984 19828
L18003 19837
L18022 19837
L18050 19828
L18162 19715
L18162 19837
" />
<path d="M17965 19893
L18162 19959
L17965 20025
" />
<path d="M18162 20240
L17965 20240
" />
<path d="M18162 20334
L17965 20334
L18162 20447
L17965 20447
" />
<path d="M18162 20540
L17965 20540
L17965 20615
L17975 20634
L17984 20643
L18003 20653
L18031 20653
L18050 20643
L18059 20634
L18068 20615
L18068 20540
" />
<path d="M17965 20737
L18125 20737
L18143 20747
L18153 20756
L18162 20775
L18162 20812
L18153 20831
L18143 20840
L18125 20850
L17965 20850
" />
<path d="M17965 20915
L17965 21028
" />
<path d="M18162 20971
L17965 20971
" />
<g transform="rotate(-90 15112.2 22773.6)">
<text x="15112.2" y="22872"
textLength="789.07" font-size="262.467" lengthAdjust="spacingAndGlyphs"
text-anchor="middle" opacity="0">PUMP</text>
</g>
<path d="M15201 22408
L15004 22408
L15004 22483
L15013 22501
L15023 22511
L15041 22520
L15070 22520
L15088 22511
L15098 22501
L15107 22483
L15107 22408
" />
<path d="M15004 22604
L15163 22604
L15182 22614
L15191 22623
L15201 22642
L15201 22679
L15191 22698
L15182 22708
L15163 22717
L15004 22717
" />
<path d="M15201 22811
L15004 22811
L15145 22876
L15004 22942
L15201 22942
" />
<path d="M15201 23036
L15004 23036
L15004 23111
L15013 23129
L15023 23139
L15041 23148
L15070 23148
L15088 23139
L15098 23129
L15107 23111
L15107 23036
" />
<g transform="rotate(-90 15435 22773.6)">
<text x="15435" y="22872"
textLength="1285.88" font-size="262.467" lengthAdjust="spacingAndGlyphs"
text-anchor="middle" opacity="0">CONTROL</text>
</g>
<path d="M15505 22272
L15514 22262
L15524 22234
L15524 22215
L15514 22187
L15495 22169
L15477 22159
L15439 22150
L15411 22150
L15374 22159
L15355 22169
L15336 22187
L15327 22215
L15327 22234
L15336 22262
L15345 22272
" />
<path d="M15327 22393
L15327 22431
L15336 22450
L15355 22468
L15392 22478
L15458 22478
L15495 22468
L15514 22450
L15524 22431
L15524 22393
L15514 22375
L15495 22356
L15458 22347
L15392 22347
L15355 22356
L15336 22375
L15327 22393
" />
<path d="M15524 22562
L15327 22562
L15524 22675
L15327 22675
" />
<path d="M15327 22740
L15327 22853
" />
<path d="M15524 22797
L15327 22797
" />
<path d="M15524 23031
L15430 22965
" />
<path d="M15524 22918
L15327 22918
L15327 22993
L15336 23012
L15345 23022
L15364 23031
L15392 23031
L15411 23022
L15420 23012
L15430 22993
L15430 22918
" />
<path d="M15327 23153
L15327 23190
L15336 23209
L15355 23228
L15392 23237
L15458 23237
L15495 23228
L15514 23209
L15524 23190
L15524 23153
L15514 23134
L15495 23115
L15458 23106
L15392 23106
L15355 23115
L15336 23134
L15327 23153
" />
<path d="M15524 23415
L15524 23321
L15327 23321
" />
<g transform="rotate(-90 8112.21 22373.6)">
<text x="8112.21" y="22472"
textLength="1314" font-size="262.467" lengthAdjust="spacingAndGlyphs"
text-anchor="middle" opacity="0">NAVLIGHT</text>
</g>
<path d="M8201 21745
L8004 21745
L8201 21858
L8004 21858
" />
<path d="M8145 21942
L8145 22036
" />
<path d="M8201 21923
L8004 21989
L8201 22054
" />
<path d="M8004 22092
L8201 22158
L8004 22223
" />
<path d="M8201 22382
L8201 22289
L8004 22289
" />
<path d="M8201 22448
L8004 22448
" />
<path d="M8013 22645
L8004 22626
L8004 22598
L8013 22570
L8032 22551
L8051 22542
L8088 22532
L8116 22532
L8154 22542
L8173 22551
L8191 22570
L8201 22598
L8201 22617
L8191 22645
L8182 22654
L8116 22654
L8116 22617
" />
<path d="M8201 22739
L8004 22739
" />
<path d="M8098 22739
L8098 22851
" />
<path d="M8201 22851
L8004 22851
" />
<path d="M8004 22917
L8004 23029
" />
<path d="M8201 22973
L8004 22973
" />
<g transform="rotate(-90 8435.04 22373.6)">
<text x="8435.04" y="22472"
textLength="1285.88" font-size="262.467" lengthAdjust="spacingAndGlyphs"
text-anchor="middle" opacity="0">CONTROL</text>
</g>
<path d="M8505 21872
L8514 21862
L8524 21834
L8524 21815
L8514 21787
L8495 21769
L8477 21759
L8439 21750
L8411 21750
L8374 21759
L8355 21769
L8336 21787
L8327 21815
L8327 21834
L8336 21862
L8345 21872
" />
<path d="M8327 21993
L8327 22031
L8336 22050
L8355 22068
L8392 22078
L8458 22078
L8495 22068
L8514 22050
L8524 22031
L8524 21993
L8514 21975
L8495 21956
L8458 21947
L8392 21947
L8355 21956
L8336 21975
L8327 21993
" />
<path d="M8524 22162
L8327 22162
L8524 22275
L8327 22275
" />
<path d="M8327 22340
L8327 22453
" />
<path d="M8524 22397
L8327 22397
" />
<path d="M8524 22631
L8430 22565
" />
<path d="M8524 22518
L8327 22518
L8327 22593
L8336 22612
L8345 22622
L8364 22631
L8392 22631
L8411 22622
L8420 22612
L8430 22593
L8430 22518
" />
<path d="M8327 22753
L8327 22790
L8336 22809
L8355 22828
L8392 22837
L8458 22837
L8495 22828
L8514 22809
L8524 22790
L8524 22753
L8514 22734
L8495 22715
L8458 22706
L8392 22706
L8355 22715
L8336 22734
L8327 22753
" />
<path d="M8524 23015
L8524 22921
L8327 22921
" />
<g transform="rotate(-90 14523.6 12273.6)">
<text x="14523.6" y="12372"
textLength="3779.32" font-size="262.467" lengthAdjust="spacingAndGlyphs"
text-anchor="middle" opacity="0">SERIAL LOGIC CONVERTER</text>
</g>
<path d="M14603 10403
L14612 10431
L14612 10478
L14603 10497
L14593 10506
L14575 10516
L14556 10516
L14537 10506
L14528 10497
L14518 10478
L14509 10441
L14500 10422
L14490 10412
L14472 10403
L14453 10403
L14434 10412
L14425 10422
L14415 10441
L14415 10487
L14425 10516
" />
<path d="M14509 10600
L14509 10666
" />
<path d="M14612 10694
L14612 10600
L14415 10600
L14415 10694
" />
<path d="M14612 10890
L14518 10825
" />
<path d="M14612 10778
L14415 10778
L14415 10853
L14425 10872
L14434 10881
L14453 10890
L14481 10890
L14500 10881
L14509 10872
L14518 10853
L14518 10778
" />
<path d="M14612 10975
L14415 10975
" />
<path d="M14556 11059
L14556 11153
" />
<path d="M14612 11040
L14415 11106
L14612 11172
" />
<path d="M14612 11331
L14612 11237
L14415 11237
" />
<path d="M14612 11640
L14612 11547
L14415 11547
" />
<path d="M14415 11744
L14415 11781
L14425 11800
L14443 11818
L14481 11828
L14547 11828
L14584 11818
L14603 11800
L14612 11781
L14612 11744
L14603 11725
L14584 11706
L14547 11697
L14481 11697
L14443 11706
L14425 11725
L14415 11744
" />
<path d="M14425 12015
L14415 11997
L14415 11968
L14425 11940
L14443 11922
L14462 11912
L14500 11903
L14528 11903
L14565 11912
L14584 11922
L14603 11940
L14612 11968
L14612 11987
L14603 12015
L14593 12025
L14528 12025
L14528 11987
" />
<path d="M14612 12109
L14415 12109
" />
<path d="M14593 12315
L14603 12306
L14612 12278
L14612 12259
L14603 12231
L14584 12212
L14565 12203
L14528 12193
L14500 12193
L14462 12203
L14443 12212
L14425 12231
L14415 12259
L14415 12278
L14425 12306
L14434 12315
" />
<path d="M14593 12662
L14603 12653
L14612 12625
L14612 12606
L14603 12578
L14584 12559
L14565 12550
L14528 12540
L14500 12540
L14462 12550
L14443 12559
L14425 12578
L14415 12606
L14415 12625
L14425 12653
L14434 12662
" />
<path d="M14415 12784
L14415 12821
L14425 12840
L14443 12859
L14481 12868
L14547 12868
L14584 12859
L14603 12840
L14612 12821
L14612 12784
L14603 12765
L14584 12747
L14547 12737
L14481 12737
L14443 12747
L14425 12765
L14415 12784
" />
<path d="M14612 12953
L14415 12953
L14612 13065
L14415 13065
" />
<path d="M14415 13131
L14612 13196
L14415 13262
" />
<path d="M14509 13328
L14509 13393
" />
<path d="M14612 13421
L14612 13328
L14415 13328
L14415 13421
" />
<path d="M14612 13618
L14518 13553
" />
<path d="M14612 13506
L14415 13506
L14415 13581
L14425 13600
L14434 13609
L14453 13618
L14481 13618
L14500 13609
L14509 13600
L14518 13581
L14518 13506
" />
<path d="M14415 13675
L14415 13787
" />
<path d="M14612 13731
L14415 13731
" />
<path d="M14509 13853
L14509 13918
" />
<path d="M14612 13946
L14612 13853
L14415 13853
L14415 13946
" />
<path d="M14612 14143
L14518 14078
" />
<path d="M14612 14031
L14415 14031
L14415 14106
L14425 14124
L14434 14134
L14453 14143
L14481 14143
L14500 14134
L14509 14124
L14518 14106
L14518 14031
" />
<g transform="rotate(-90 8273.62 16273.6)">
<text x="8273.62" y="16372"
textLength="4144.9" font-size="262.467" lengthAdjust="spacingAndGlyphs"
text-anchor="middle" opacity="0">APRS RADIO POWER SUPPLY</text>
</g>
<path d="M8306 14220
L8306 14314
" />
<path d="M8362 14202
L8165 14267
L8362 14333
" />
<path d="M8362 14398
L8165 14398
L8165 14473
L8175 14492
L8184 14501
L8203 14511
L8231 14511
L8250 14501
L8259 14492
L8268 14473
L8268 14398
" />
<path d="M8362 14708
L8268 14642
" />
<path d="M8362 14595
L8165 14595
L8165 14670
L8175 14689
L8184 14698
L8203 14708
L8231 14708
L8250 14698
L8259 14689
L8268 14670
L8268 14595
" />
<path d="M8353 14783
L8362 14811
L8362 14858
L8353 14876
L8343 14886
L8325 14895
L8306 14895
L8287 14886
L8278 14876
L8268 14858
L8259 14820
L8250 14801
L8240 14792
L8222 14783
L8203 14783
L8184 14792
L8175 14801
L8165 14820
L8165 14867
L8175 14895
" />
<path d="M8362 15242
L8268 15176
" />
<path d="M8362 15130
L8165 15130
L8165 15205
L8175 15223
L8184 15233
L8203 15242
L8231 15242
L8250 15233
L8259 15223
L8268 15205
L8268 15130
" />
<path d="M8306 15317
L8306 15411
" />
<path d="M8362 15298
L8165 15364
L8362 15429
" />
<path d="M8362 15495
L8165 15495
L8165 15542
L8175 15570
L8193 15589
L8212 15598
L8250 15608
L8278 15608
L8315 15598
L8334 15589
L8353 15570
L8362 15542
L8362 15495
" />
<path d="M8362 15692
L8165 15692
" />
<path d="M8165 15823
L8165 15861
L8175 15879
L8193 15898
L8231 15908
L8297 15908
L8334 15898
L8353 15879
L8362 15861
L8362 15823
L8353 15804
L8334 15786
L8297 15776
L8231 15776
L8193 15786
L8175 15804
L8165 15823
" />
<path d="M8362 16142
L8165 16142
L8165 16217
L8175 16236
L8184 16245
L8203 16254
L8231 16254
L8250 16245
L8259 16236
L8268 16217
L8268 16142
" />
<path d="M8165 16376
L8165 16414
L8175 16432
L8193 16451
L8231 16461
L8297 16461
L8334 16451
L8353 16432
L8362 16414
L8362 16376
L8353 16357
L8334 16339
L8297 16329
L8231 16329
L8193 16339
L8175 16357
L8165 16376
" />
<path d="M8165 16526
L8362 16573
L8222 16611
L8362 16648
L8165 16695
" />
<path d="M8259 16770
L8259 16836
" />
<path d="M8362 16864
L8362 16770
L8165 16770
L8165 16864
" />
<path d="M8362 17061
L8268 16995
" />
<path d="M8362 16948
L8165 16948
L8165 17023
L8175 17042
L8184 17051
L8203 17061
L8231 17061
L8250 17051
L8259 17042
L8268 17023
L8268 16948
" />
<path d="M8353 17285
L8362 17314
L8362 17360
L8353 17379
L8343 17389
L8325 17398
L8306 17398
L8287 17389
L8278 17379
L8268 17360
L8259 17323
L8250 17304
L8240 17295
L8222 17285
L8203 17285
L8184 17295
L8175 17304
L8165 17323
L8165 17370
L8175 17398
" />
<path d="M8165 17482
L8325 17482
L8343 17492
L8353 17501
L8362 17520
L8362 17557
L8353 17576
L8343 17585
L8325 17595
L8165 17595
" />
<path d="M8362 17689
L8165 17689
L8165 17764
L8175 17782
L8184 17792
L8203 17801
L8231 17801
L8250 17792
L8259 17782
L8268 17764
L8268 17689
" />
<path d="M8362 17885
L8165 17885
L8165 17960
L8175 17979
L8184 17989
L8203 17998
L8231 17998
L8250 17989
L8259 17979
L8268 17960
L8268 17885
" />
<path d="M8362 18176
L8362 18082
L8165 18082
" />
<path d="M8268 18279
L8362 18279
" />
<path d="M8165 18214
L8268 18279
L8165 18345
" />
<g transform="rotate(-90 18023.6 6523.62)">
<text x="18023.6" y="6622.05"
textLength="2991.92" font-size="262.467" lengthAdjust="spacingAndGlyphs"
text-anchor="middle" opacity="0">HEARTBEAT MONITOR</text>
</g>
<path d="M18112 5056
L17915 5056
" />
<path d="M18009 5056
L18009 5169
" />
<path d="M18112 5169
L17915 5169
" />
<path d="M18009 5262
L18009 5328
" />
<path d="M18112 5356
L18112 5262
L17915 5262
L17915 5356
" />
<path d="M18056 5431
L18056 5525
" />
<path d="M18112 5412
L17915 5478
L18112 5544
" />
<path d="M18112 5722
L18018 5656
" />
<path d="M18112 5609
L17915 5609
L17915 5684
L17925 5703
L17934 5712
L17953 5722
L17981 5722
L18000 5712
L18009 5703
L18018 5684
L18018 5609
" />
<path d="M17915 5778
L17915 5890
" />
<path d="M18112 5834
L17915 5834
" />
<path d="M18009 6022
L18018 6050
L18028 6059
L18047 6068
L18075 6068
L18093 6059
L18103 6050
L18112 6031
L18112 5956
L17915 5956
L17915 6022
L17925 6040
L17934 6050
L17953 6059
L17972 6059
L17990 6050
L18000 6040
L18009 6022
L18009 5956
" />
<path d="M18009 6153
L18009 6218
" />
<path d="M18112 6247
L18112 6153
L17915 6153
L17915 6247
" />
<path d="M18056 6322
L18056 6415
" />
<path d="M18112 6303
L17915 6368
L18112 6434
" />
<path d="M17915 6472
L17915 6584
" />
<path d="M18112 6528
L17915 6528
" />
<path d="M18112 6800
L17915 6800
L18056 6865
L17915 6931
L18112 6931
" />
<path d="M17915 7062
L17915 7100
L17925 7118
L17943 7137
L17981 7146
L18047 7146
L18084 7137
L18103 7118
L18112 7100
L18112 7062
L18103 7043
L18084 7025
L18047 7015
L17981 7015
L17943 7025
L17925 7043
L17915 7062
" />
<path d="M18112 7231
L17915 7231
L18112 7343
L17915 7343
" />
<path d="M18112 7437
L17915 7437
" />
<path d="M17915 7503
L17915 7615
" />
<path d="M18112 7559
L17915 7559
" />
<path d="M17915 7718
L17915 7756
L17925 7775
L17943 7793
L17981 7803
L18047 7803
L18084 7793
L18103 7775
L18112 7756
L18112 7718
L18103 7700
L18084 7681
L18047 7671
L17981 7671
L17943 7681
L17925 7700
L17915 7718
" />
<path d="M18112 8000
L18018 7934
" />
<path d="M18112 7887
L17915 7887
L17915 7962
L17925 7981
L17934 7990
L17953 8000
L17981 8000
L18000 7990
L18009 7981
L18018 7962
L18018 7887
" />
<g transform="rotate(-90 17273.6 6023.62)">
<text x="17273.6" y="6122.05"
textLength="4116.78" font-size="262.467" lengthAdjust="spacingAndGlyphs"
text-anchor="middle" opacity="0">MOTOR CONTROLLER SIGNAL</text>
</g>
<path d="M17362 3994
L17165 3994
L17306 4059
L17165 4125
L17362 4125
" />
<path d="M17165 4256
L17165 4294
L17175 4312
L17193 4331
L17231 4341
L17297 4341
L17334 4331
L17353 4312
L17362 4294
L17362 4256
L17353 4237
L17334 4219
L17297 4209
L17231 4209
L17193 4219
L17175 4237
L17165 4256
" />
<path d="M17165 4397
L17165 4509
" />
<path d="M17362 4453
L17165 4453
" />
<path d="M17165 4612
L17165 4650
L17175 4669
L17193 4687
L17231 4697
L17297 4697
L17334 4687
L17353 4669
L17362 4650
L17362 4612
L17353 4594
L17334 4575
L17297 4565
L17231 4565
L17193 4575
L17175 4594
L17165 4612
" />
<path d="M17362 4894
L17268 4828
" />
<path d="M17362 4781
L17165 4781
L17165 4856
L17175 4875
L17184 4884
L17203 4894
L17231 4894
L17250 4884
L17259 4875
L17268 4856
L17268 4781
" />
<path d="M17343 5240
L17353 5231
L17362 5203
L17362 5184
L17353 5156
L17334 5137
L17315 5128
L17278 5119
L17250 5119
L17212 5128
L17193 5137
L17175 5156
L17165 5184
L17165 5203
L17175 5231
L17184 5240
" />
<path d="M17165 5362
L17165 5400
L17175 5419
L17193 5437
L17231 5447
L17297 5447
L17334 5437
L17353 5419
L17362 5400
L17362 5362
L17353 5344
L17334 5325
L17297 5315
L17231 5315
L17193 5325
L17175 5344
L17165 5362
" />
<path d="M17362 5531
L17165 5531
L17362 5643
L17165 5643
" />
<path d="M17165 5709
L17165 5822
" />
<path d="M17362 5765
L17165 5765
" />
<path d="M17362 6000
L17268 5934
" />
<path d="M17362 5887
L17165 5887
L17165 5962
L17175 5981
L17184 5990
L17203 6000
L17231 6000
L17250 5990
L17259 5981
L17268 5962
L17268 5887
" />
<path d="M17165 6122
L17165 6159
L17175 6178
L17193 6197
L17231 6206
L17297 6206
L17334 6197
L17353 6178
L17362 6159
L17362 6122
L17353 6103
L17334 6084
L17297 6075
L17231 6075
L17193 6084
L17175 6103
L17165 6122
" />
<path d="M17362 6384
L17362 6290
L17165 6290
" />
<path d="M17362 6543
L17362 6450
L17165 6450
" />
<path d="M17259 6609
L17259 6675
" />
<path d="M17362 6703
L17362 6609
L17165 6609
L17165 6703
" />
<path d="M17362 6900
L17268 6834
" />
<path d="M17362 6787
L17165 6787
L17165 6862
L17175 6881
L17184 6890
L17203 6900
L17231 6900
L17250 6890
L17259 6881
L17268 6862
L17268 6787
" />
<path d="M17353 7125
L17362 7153
L17362 7200
L17353 7218
L17343 7228
L17325 7237
L17306 7237
L17287 7228
L17278 7218
L17268 7200
L17259 7162
L17250 7143
L17240 7134
L17222 7125
L17203 7125
L17184 7134
L17175 7143
L17165 7162
L17165 7209
L17175 7237
" />
<path d="M17362 7321
L17165 7321
" />
<path d="M17175 7518
L17165 7500
L17165 7471
L17175 7443
L17193 7425
L17212 7415
L17250 7406
L17278 7406
L17315 7415
L17334 7425
L17353 7443
L17362 7471
L17362 7490
L17353 7518
L17343 7528
L17278 7528
L17278 7490
" />
<path d="M17362 7612
L17165 7612
L17362 7724
L17165 7724
" />
<path d="M17306 7809
L17306 7903
" />
<path d="M17362 7790
L17165 7856
L17362 7921
" />
<path d="M17362 8081
L17362 7987
L17165 7987
" />
<g transform="rotate(-90 12362.2 7023.62)">
<text x="12362.2" y="7122.05"
textLength="2373.25" font-size="262.467" lengthAdjust="spacingAndGlyphs"
text-anchor="middle" opacity="0">ACCELEROMETER</text>
</g>
<path d="M12395 5856
L12395 5950
" />
<path d="M12451 5837
L12254 5903
L12451 5969
" />
<path d="M12432 6147
L12441 6137
L12451 6109
L12451 6090
L12441 6062
L12423 6044
L12404 6034
L12366 6025
L12338 6025
L12301 6034
L12282 6044
L12263 6062
L12254 6090
L12254 6109
L12263 6137
L12273 6147
" />
<path d="M12432 6344
L12441 6334
L12451 6306
L12451 6287
L12441 6259
L12423 6240
L12404 6231
L12366 6222
L12338 6222
L12301 6231
L12282 6240
L12263 6259
L12254 6287
L12254 6306
L12263 6334
L12273 6344
" />
<path d="M12348 6428
L12348 6494
" />
<path d="M12451 6522
L12451 6428
L12254 6428
L12254 6522
" />
<path d="M12451 6700
L12451 6606
L12254 6606
" />
<path d="M12348 6765
L12348 6831
" />
<path d="M12451 6859
L12451 6765
L12254 6765
L12254 6859
" />
<path d="M12451 7056
L12357 6990
" />
<path d="M12451 6943
L12254 6943
L12254 7018
L12263 7037
L12273 7047
L12291 7056
L12320 7056
L12338 7047
L12348 7037
L12357 7018
L12357 6943
" />
<path d="M12254 7178
L12254 7215
L12263 7234
L12282 7253
L12320 7262
L12385 7262
L12423 7253
L12441 7234
L12451 7215
L12451 7178
L12441 7159
L12423 7140
L12385 7131
L12320 7131
L12282 7140
L12263 7159
L12254 7178
" />
<path d="M12451 7347
L12254 7347
L12395 7412
L12254 7478
L12451 7478
" />
<path d="M12348 7571
L12348 7637
" />
<path d="M12451 7665
L12451 7571
L12254 7571
L12254 7665
" />
<path d="M12254 7721
L12254 7834
" />
<path d="M12451 7778
L12254 7778
" />
<path d="M12348 7900
L12348 7965
" />
<path d="M12451 7993
L12451 7900
L12254 7900
L12254 7993
" />
<path d="M12451 8190
L12357 8125
" />
<path d="M12451 8078
L12254 8078
L12254 8153
L12263 8171
L12273 8181
L12291 8190
L12320 8190
L12338 8181
L12348 8171
L12357 8153
L12357 8078
" />
<g transform="rotate(-90 12685 7023.62)">
<text x="12685" y="7122.05"
textLength="1698.33" font-size="262.467" lengthAdjust="spacingAndGlyphs"
text-anchor="middle" opacity="0">GYROSCOPE</text>
</g>
<path d="M12586 6306
L12577 6287
L12577 6259
L12586 6231
L12605 6212
L12624 6203
L12661 6194
L12689 6194
L12727 6203
L12745 6212
L12764 6231
L12774 6259
L12774 6278
L12764 6306
L12755 6315
L12689 6315
L12689 6278
" />
<path d="M12680 6437
L12774 6437
" />
<path d="M12577 6372
L12680 6437
L12577 6503
" />
<path d="M12774 6681
L12680 6615
" />
<path d="M12774 6568
L12577 6568
L12577 6643
L12586 6662
L12595 6672
L12614 6681
L12642 6681
L12661 6672
L12670 6662
L12680 6643
L12680 6568
" />
<path d="M12577 6803
L12577 6840
L12586 6859
L12605 6878
L12642 6887
L12708 6887
L12745 6878
L12764 6859
L12774 6840
L12774 6803
L12764 6784
L12745 6765
L12708 6756
L12642 6756
L12605 6765
L12586 6784
L12577 6803
" />
<path d="M12764 6962
L12774 6990
L12774 7037
L12764 7056
L12755 7065
L12736 7075
L12717 7075
L12699 7065
L12689 7056
L12680 7037
L12670 7000
L12661 6981
L12652 6972
L12633 6962
L12614 6962
L12595 6972
L12586 6981
L12577 7000
L12577 7047
L12586 7075
" />
<path d="M12755 7272
L12764 7262
L12774 7234
L12774 7215
L12764 7187
L12745 7168
L12727 7159
L12689 7150
L12661 7150
L12624 7159
L12605 7168
L12586 7187
L12577 7215
L12577 7234
L12586 7262
L12595 7272
" />
<path d="M12577 7393
L12577 7431
L12586 7450
L12605 7468
L12642 7478
L12708 7478
L12745 7468
L12764 7450
L12774 7431
L12774 7393
L12764 7375
L12745 7356
L12708 7347
L12642 7347
L12605 7356
L12586 7375
L12577 7393
" />
<path d="M12774 7562
L12577 7562
L12577 7637
L12586 7656
L12595 7665
L12614 7675
L12642 7675
L12661 7665
L12670 7656
L12680 7637
L12680 7562
" />
<path d="M12670 7759
L12670 7825
" />
<path d="M12774 7853
L12774 7759
L12577 7759
L12577 7853
" />
</g>
<g style="fill:#840084; fill-opacity:0.0; 
stroke:#840084; stroke-width:47.2441; stroke-opacity:1; 
stroke-linecap:round; stroke-linejoin:round;">
<path d="M12023 5773
L12023 8273
" />
<path d="M12773 3273
L12773 5773
" />
</g>
<g style="fill:#840084; fill-opacity:0.0; 
stroke:#840084; stroke-width:27.5591; stroke-opacity:1; 
stroke-linecap:round; stroke-linejoin:round;">
<g transform="rotate(-90 8273.62 4023.62)">
<text x="8273.62" y="4122.05"
textLength="1970.17" font-size="262.467" lengthAdjust="spacingAndGlyphs"
text-anchor="middle" opacity="0">WATER SENSE</text>
</g>
<path d="M8165 3048
L8362 3095
L8222 3133
L8362 3170
L8165 3217
" />
<path d="M8306 3283
L8306 3376
" />
<path d="M8362 3264
L8165 3329
L8362 3395
" />
<path d="M8165 3433
L8165 3545
" />
<path d="M8362 3489
L8165 3489
" />
<path d="M8259 3611
L8259 3676
" />
<path d="M8362 3704
L8362 3611
L8165 3611
L8165 3704
" />
<path d="M8362 3901
L8268 3836
" />
<path d="M8362 3789
L8165 3789
L8165 3864
L8175 3883
L8184 3892
L8203 3901
L8231 3901
L8250 3892
L8259 3883
L8268 3864
L8268 3789
" />
<path d="M8353 4126
L8362 4154
L8362 4201
L8353 4220
L8343 4229
L8325 4239
L8306 4239
L8287 4229
L8278 4220
L8268 4201
L8259 4164
L8250 4145
L8240 4136
L8222 4126
L8203 4126
L8184 4136
L8175 4145
L8165 4164
L8165 4211
L8175 4239
" />
<path d="M8259 4323
L8259 4389
" />
<path d="M8362 4417
L8362 4323
L8165 4323
L8165 4417
" />
<path d="M8362 4501
L8165 4501
L8362 4614
L8165 4614
" />
<path d="M8353 4698
L8362 4726
L8362 4773
L8353 4792
L8343 4801
L8325 4811
L8306 4811
L8287 4801
L8278 4792
L8268 4773
L8259 4736
L8250 4717
L8240 4707
L8222 4698
L8203 4698
L8184 4707
L8175 4717
L8165 4736
L8165 4782
L8175 4811
" />
<path d="M8259 4895
L8259 4961
" />
<path d="M8362 4989
L8362 4895
L8165 4895
L8165 4989
" />
</g>
<g style="fill:#840084; fill-opacity:0.0; 
stroke:#840084; stroke-width:47.2441; stroke-opacity:1; 
stroke-linecap:round; stroke-linejoin:round;">
<path d="M8773 2523
L7773 2523
" />
<path d="M8773 2023
L8773 2523
" />
<path d="M14523 2023
L8773 2023
" />
<path d="M14523 2023
L17073 2023
" />
</g>
<g style="fill:#840084; fill-opacity:0.0; 
stroke:#840084; stroke-width:27.5591; stroke-opacity:1; 
stroke-linecap:round; stroke-linejoin:round;">
<g transform="rotate(-90 8112.21 1523.62)">
<text x="8112.21" y="1622.05"
textLength="1379.62" font-size="262.467" lengthAdjust="spacingAndGlyphs"
text-anchor="middle" opacity="0">MAGNETIC</text>
</g>
<path d="M8201 862
L8004 862
L8145 928
L8004 994
L8201 994
" />
<path d="M8145 1078
L8145 1172
" />
<path d="M8201 1059
L8004 1125
L8201 1190
" />
<path d="M8013 1359
L8004 1340
L8004 1312
L8013 1284
L8032 1265
L8051 1256
L8088 1247
L8116 1247
L8154 1256
L8173 1265
L8191 1284
L8201 1312
L8201 1331
L8191 1359
L8182 1368
L8116 1368
L8116 1331
" />
<path d="M8201 1453
L8004 1453
L8201 1565
L8004 1565
" />
<path d="M8098 1659
L8098 1725
" />
<path d="M8201 1753
L8201 1659
L8004 1659
L8004 1753
" />
<path d="M8004 1809
L8004 1922
" />
<path d="M8201 1865
L8004 1865
" />
<path d="M8201 1987
L8004 1987
" />
<path d="M8182 2193
L8191 2184
L8201 2156
L8201 2137
L8191 2109
L8173 2090
L8154 2081
L8116 2071
L8088 2071
L8051 2081
L8032 2090
L8013 2109
L8004 2137
L8004 2156
L8013 2184
L8023 2193
" />
<g transform="rotate(-90 8435.04 1523.62)">
<text x="8435.04" y="1622.05"
textLength="1332.75" font-size="262.467" lengthAdjust="spacingAndGlyphs"
text-anchor="middle" opacity="0">COMPASS</text>
</g>
<path d="M8505 998
L8514 989
L8524 961
L8524 942
L8514 914
L8495 895
L8477 886
L8439 876
L8411 876
L8374 886
L8355 895
L8336 914
L8327 942
L8327 961
L8336 989
L8345 998
" />
<path d="M8327 1120
L8327 1158
L8336 1176
L8355 1195
L8392 1204
L8458 1204
L8495 1195
L8514 1176
L8524 1158
L8524 1120
L8514 1101
L8495 1083
L8458 1073
L8392 1073
L8355 1083
L8336 1101
L8327 1120
" />
<path d="M8524 1289
L8327 1289
L8467 1354
L8327 1420
L8524 1420
" />
<path d="M8524 1514
L8327 1514
L8327 1589
L8336 1607
L8345 1617
L8364 1626
L8392 1626
L8411 1617
L8420 1607
L8430 1589
L8430 1514
" />
<path d="M8467 1701
L8467 1795
" />
<path d="M8524 1682
L8327 1748
L8524 1814
" />
<path d="M8514 1870
L8524 1898
L8524 1945
L8514 1964
L8505 1973
L8486 1982
L8467 1982
L8449 1973
L8439 1964
L8430 1945
L8420 1907
L8411 1889
L8402 1879
L8383 1870
L8364 1870
L8345 1879
L8336 1889
L8327 1907
L8327 1954
L8336 1982
" />
<path d="M8514 2057
L8524 2086
L8524 2132
L8514 2151
L8505 2161
L8486 2170
L8467 2170
L8449 2161
L8439 2151
L8430 2132
L8420 2095
L8411 2076
L8402 2067
L8383 2057
L8364 2057
L8345 2067
L8336 2076
L8327 2095
L8327 2142
L8336 2170
" />
</g>
<g style="fill:#840084; fill-opacity:0.0; 
stroke:#840084; stroke-width:39.3701; stroke-opacity:1; 
stroke-linecap:round; stroke-linejoin:round;">
<g transform="rotate(-90 3523.62 11773.6)">
<text x="3523.62" y="11911.4"
textLength="1919.55" font-size="367.454" lengthAdjust="spacingAndGlyphs"
text-anchor="middle" opacity="0">APRS PTT</text>
</g>
<path d="M3569 10848
L3569 10979
" />
<path d="M3648 10822
L3372 10914
L3648 11005
" />
<path d="M3648 11097
L3372 11097
L3372 11202
L3385 11229
L3398 11242
L3425 11255
L3464 11255
L3490 11242
L3503 11229
L3517 11202
L3517 11097
" />
<path d="M3648 11530
L3517 11438
" />
<path d="M3648 11373
L3372 11373
L3372 11478
L3385 11504
L3398 11517
L3425 11530
L3464 11530
L3490 11517
L3503 11504
L3517 11478
L3517 11373
" />
<path d="M3635 11635
L3648 11675
L3648 11740
L3635 11767
L3622 11780
L3595 11793
L3569 11793
L3543 11780
L3530 11767
L3517 11740
L3503 11688
L3490 11662
L3477 11648
L3451 11635
L3425 11635
L3398 11648
L3385 11662
L3372 11688
L3372 11753
L3385 11793
" />
<path d="M3648 12121
L3372 12121
L3372 12226
L3385 12252
L3398 12265
L3425 12278
L3464 12278
L3490 12265
L3503 12252
L3517 12226
L3517 12121
" />
<path d="M3372 12357
L3372 12515
" />
<path d="M3648 12436
L3372 12436
" />
<path d="M3372 12567
L3372 12725
" />
<path d="M3648 12646
L3372 12646
" />
<g transform="rotate(-90 3523.62 16523.6)">
<text x="3523.62" y="16661.4"
textLength="3334.65" font-size="367.454" lengthAdjust="spacingAndGlyphs"
text-anchor="middle" opacity="0">APRS TO DEVICE</text>
</g>
<path d="M3569 14883
L3569 15014
" />
<path d="M3648 14856
L3372 14948
L3648 15040
" />
<path d="M3648 15132
L3372 15132
L3372 15237
L3385 15263
L3398 15276
L3425 15290
L3464 15290
L3490 15276
L3503 15263
L3517 15237
L3517 15132
" />
<path d="M3648 15565
L3517 15473
" />
<path d="M3648 15408
L3372 15408
L3372 15513
L3385 15539
L3398 15552
L3425 15565
L3464 15565
L3490 15552
L3503 15539
L3517 15513
L3517 15408
" />
<path d="M3635 15670
L3648 15709
L3648 15775
L3635 15801
L3622 15814
L3595 15828
L3569 15828
L3543 15814
L3530 15801
L3517 15775
L3503 15723
L3490 15696
L3477 15683
L3451 15670
L3425 15670
L3398 15683
L3385 15696
L3372 15723
L3372 15788
L3385 15828
" />
<path d="M3372 16116
L3372 16274
" />
<path d="M3648 16195
L3372 16195
" />
<path d="M3372 16418
L3372 16471
L3385 16497
L3412 16523
L3464 16536
L3556 16536
L3608 16523
L3635 16497
L3648 16471
L3648 16418
L3635 16392
L3608 16366
L3556 16353
L3464 16353
L3412 16366
L3385 16392
L3372 16418
" />
<path d="M3648 16864
L3372 16864
L3372 16930
L3385 16969
L3412 16996
L3438 17009
L3490 17022
L3530 17022
L3582 17009
L3608 16996
L3635 16969
L3648 16930
L3648 16864
" />
<path d="M3503 17140
L3503 17232
" />
<path d="M3648 17271
L3648 17140
L3372 17140
L3372 17271
" />
<path d="M3372 17350
L3648 17442
L3372 17534
" />
<path d="M3648 17625
L3372 17625
" />
<path d="M3622 17914
L3635 17901
L3648 17862
L3648 17835
L3635 17796
L3608 17770
L3582 17757
L3530 17744
L3490 17744
L3438 17757
L3412 17770
L3385 17796
L3372 17835
L3372 17862
L3385 17901
L3398 17914
" />
<path d="M3503 18032
L3503 18124
" />
<path d="M3648 18164
L3648 18032
L3372 18032
L3372 18164
" />
<g transform="rotate(-90 3523.62 3523.62)">
<text x="3523.62" y="3661.42"
textLength="3124.67" font-size="367.454" lengthAdjust="spacingAndGlyphs"
text-anchor="middle" opacity="0">APRS TO RADIO</text>
</g>
<path d="M3569 1988
L3569 2119
" />
<path d="M3648 1961
L3372 2053
L3648 2145
" />
<path d="M3648 2237
L3372 2237
L3372 2342
L3385 2368
L3398 2381
L3425 2395
L3464 2395
L3490 2381
L3503 2368
L3517 2342
L3517 2237
" />
<path d="M3648 2670
L3517 2578
" />
<path d="M3648 2513
L3372 2513
L3372 2618
L3385 2644
L3398 2657
L3425 2670
L3464 2670
L3490 2657
L3503 2644
L3517 2618
L3517 2513
" />
<path d="M3635 2775
L3648 2814
L3648 2880
L3635 2906
L3622 2919
L3595 2933
L3569 2933
L3543 2919
L3530 2906
L3517 2880
L3503 2828
L3490 2801
L3477 2788
L3451 2775
L3425 2775
L3398 2788
L3385 2801
L3372 2828
L3372 2893
L3385 2933
" />
<path d="M3372 3221
L3372 3379
" />
<path d="M3648 3300
L3372 3300
" />
<path d="M3372 3523
L3372 3576
L3385 3602
L3412 3628
L3464 3641
L3556 3641
L3608 3628
L3635 3602
L3648 3576
L3648 3523
L3635 3497
L3608 3471
L3556 3458
L3464 3458
L3412 3471
L3385 3497
L3372 3523
" />
<path d="M3648 4127
L3517 4035
" />
<path d="M3648 3969
L3372 3969
L3372 4074
L3385 4101
L3398 4114
L3425 4127
L3464 4127
L3490 4114
L3503 4101
L3517 4074
L3517 3969
" />
<path d="M3569 4232
L3569 4363
" />
<path d="M3648 4206
L3372 4297
L3648 4389
" />
<path d="M3648 4481
L3372 4481
L3372 4547
L3385 4586
L3412 4612
L3438 4625
L3490 4639
L3530 4639
L3582 4625
L3608 4612
L3635 4586
L3648 4547
L3648 4481
" />
<path d="M3648 4757
L3372 4757
" />
<path d="M3372 4940
L3372 4993
L3385 5019
L3412 5045
L3464 5059
L3556 5059
L3608 5045
L3635 5019
L3648 4993
L3648 4940
L3635 4914
L3608 4888
L3556 4875
L3464 4875
L3412 4888
L3385 4914
L3372 4940
" />
</g>
<g style="fill:#840084; fill-opacity:0.0; 
stroke:#840084; stroke-width:47.2441; stroke-opacity:1; 
stroke-linecap:round; stroke-linejoin:round;">
<path d="M7773 23773
L7773 24023
" />
<path d="M5773 23773
L7773 23773
" />
<path d="M5773 24023
L5773 23773
" />
<path d="M7773 24023
L5773 24023
" />
<path d="M17873 18523
L19523 18523
" />
<path d="M17873 19273
L17873 18523
" />
<path d="M14273 11023
L14273 15023
" />
<path d="M19523 21773
L19523 15023
" />
<path d="M19523 9773
L19523 3773
" />
<path d="M17773 3773
L17773 9773
" />
<path d="M1523 13773
L5773 13773
" />
<path d="M5773 10273
L1523 10273
" />
<path d="M5750 1738
L5773 1773
" />
<path d="M5773 23
L5750 1738
" />
<path d="M1523 23
L5773 23
" />
<path d="M1523 24023
L1523 23
" />
<path d="M5773 24023
L1273 24023
" />
<path d="M14523 523
L14523 2023
" />
<path d="M7797 714
L7773 773
" />
<path d="M7773 523
L7797 714
" />
<path d="M17773 523
L7773 523
" />
<path d="M17773 2773
L14273 2773
" />
<path d="M17773 3773
L17773 2773
" />
<path d="M18023 3773
L17773 3773
" />
<path d="M19523 3773
L18023 3773
" />
<path d="M19523 523
L19523 3773
" />
<path d="M17773 523
L19523 523
" />
<path d="M17773 2023
L17773 523
" />
<path d="M12773 5773
L7773 5773
" />
<path d="M12023 8273
L12023 11023
" />
<path d="M13023 3273
L12773 3273
" />
<path d="M13023 2773
L13023 3273
" />
<path d="M14273 2773
L13023 2773
" />
<path d="M14273 9773
L14273 2773
" />
<path d="M19523 15023
L14273 15023
" />
<path d="M19523 9773
L19523 15023
" />
<path d="M14273 9773
L19523 9773
" />
<path d="M14273 10773
L14273 9773
" />
<path d="M14273 11023
L14273 10773
" />
<path d="M8023 20023
L7773 20023
" />
<path d="M14273 11023
L7773 11023
" />
<path d="M17873 21773
L17873 19273
" />
<path d="M19523 24023
L11273 24023
" />
<path d="M19523 21773
L19523 24023
" />
<path d="M11773 21773
L19523 21773
" />
<path d="M11273 24023
L7797 24011
" />
<path d="M11273 21773
L11273 24023
" />
<path d="M11773 21773
L11273 21773
" />
<path d="M11773 21523
L11773 21773
" />
<path d="M11773 20023
L11773 21523
" />
<path d="M8023 20023
L11773 20023
" />
<path d="M9372 4519
L9372 4647
" />
<path d="M9774 4519
L9774 4647
" />
<path d="M5750 23761
L7797 23761
" />
<path d="M5750 1738
L5750 23761
" />
<path d="M7797 714
L7797 23761
" />
<path d="M5750 1738
L6773 1738
" />
<path d="M6773 1738
L6773 714
" />
<path d="M6773 714
L7797 714
" />
<path d="M5750 1238
L5750 714
" />
<path d="M5750 714
L6273 714
" />
<path d="M3974 18837
L3974 18709
" />
<path d="M3572 18837
L3572 18709
" />
<path d="M3974 22587
L3974 22459
" />
<path d="M3572 22587
L3572 22459
" />
<path d="M3474 9587
L3474 9459
" />
<path d="M3072 9587
L3072 9459
" />
<path d="M3572 21149
L3572 21277
" />
<path d="M3974 21149
L3974 21277
" />
<path d="M3587 20072
L3459 20072
" />
<path d="M3587 20474
L3459 20474
" />
<path d="M2822 18709
L2822 18837
" />
<path d="M3224 18709
L3224 18837
" />
<path d="M4087 6322
L3959 6322
" />
<path d="M4087 6724
L3959 6724
" />
<path d="M5072 6709
L5072 6837
" />
<path d="M5474 6709
L5474 6837
" />
<path d="M11472 4719
L11472 4847
" />
<path d="M11874 4719
L11874 4847
" />
<path d="M11027 2572
L10899 2572
" />
<path d="M11027 2974
L10899 2974
" />
<path d="M12072 4719
L12072 4847
" />
<path d="M12474 4719
L12474 4847
" />
<path d="M12337 2572
L12209 2572
" />
<path d="M12337 2974
L12209 2974
" />
<path d="M10872 4719
L10872 4847
" />
<path d="M11274 4719
L11274 4847
" />
<path d="M9174 4627
L9174 4499
" />
<path d="M8772 4627
L8772 4499
" />
<path d="M8474 20837
L8474 20709
" />
<path d="M8072 20837
L8072 20709
" />
<path d="M17137 11334
L17009 11334
" />
<path d="M17137 11736
L17009 11736
" />
<path d="M18174 12727
L18174 12599
" />
<path d="M17772 12727
L17772 12599
" />
<path d="M17172 12609
L17172 12737
" />
<path d="M17574 12609
L17574 12737
" />
<path d="M16474 12497
L16474 12369
" />
<path d="M16072 12497
L16072 12369
" />
<path d="M15472 12369
L15472 12497
" />
<path d="M15874 12369
L15874 12497
" />
<path d="M18174 11227
L18174 11099
" />
<path d="M17772 11227
L17772 11099
" />
<path d="M13269 12474
L13397 12474
" />
<path d="M13269 12072
L13397 12072
" />
<path d="M13277 13322
L13149 13322
" />
<path d="M13277 13724
L13149 13724
" />
<path d="M12724 9027
L12724 8899
" />
<path d="M12322 9027
L12322 8899
" />
<path d="M12499 22424
L12627 22424
" />
<path d="M12499 22022
L12627 22022
" />
</g>
<g style="fill:#840084; fill-opacity:0.0; 
stroke:#840084; stroke-width:27.5591; stroke-opacity:1; 
stroke-linecap:round; stroke-linejoin:round;">
<g transform="rotate(-90 9973.62 4583.66)">
<text x="9973.62" y="4682.09"
textLength="520.622" font-size="262.467" lengthAdjust="spacingAndGlyphs"
text-anchor="middle" opacity="0">R12</text>
</g>
<path d="M10062 4457
L9968 4391
" />
<path d="M10062 4344
L9865 4344
L9865 4419
L9875 4438
L9884 4447
L9903 4457
L9931 4457
L9950 4447
L9959 4438
L9968 4419
L9968 4344
" />
<path d="M10062 4644
L10062 4532
" />
<path d="M10062 4588
L9865 4588
L9893 4569
L9912 4550
L9922 4532
" />
<path d="M9884 4719
L9875 4728
L9865 4747
L9865 4794
L9875 4813
L9884 4822
L9903 4832
L9922 4832
L9950 4822
L10062 4710
L10062 4832
" />
<text x="6773.62" y="622.048"
textLength="301.631" font-size="262.467" lengthAdjust="spacingAndGlyphs"
text-anchor="middle" opacity="0">J9</text>
<path d="M6839 415
L6839 556
L6848 584
L6867 603
L6895 612
L6914 612
" />
<path d="M6736 612
L6698 612
L6679 603
L6670 593
L6651 565
L6642 528
L6642 453
L6651 434
L6661 425
L6679 415
L6717 415
L6736 425
L6745 434
L6754 453
L6754 500
L6745 518
L6736 528
L6717 537
L6679 537
L6661 528
L6651 518
L6642 500
" />
<g transform="rotate(-90 4336.61 18773.6)">
<text x="4336.61" y="18872"
textLength="348.5" font-size="262.467" lengthAdjust="spacingAndGlyphs"
text-anchor="middle" opacity="0">C1</text>
</g>
<path d="M4406 18740
L4416 18731
L4425 18703
L4425 18684
L4416 18656
L4397 18637
L4378 18628
L4341 18618
L4313 18618
L4275 18628
L4256 18637
L4238 18656
L4228 18684
L4228 18703
L4238 18731
L4247 18740
" />
<path d="M4425 18928
L4425 18815
" />
<path d="M4425 18872
L4228 18872
L4256 18853
L4275 18834
L4285 18815
" />
<g transform="rotate(-90 4336.61 22523.6)">
<text x="4336.61" y="22622"
textLength="348.5" font-size="262.467" lengthAdjust="spacingAndGlyphs"
text-anchor="middle" opacity="0">C2</text>
</g>
<path d="M4406 22490
L4416 22481
L4425 22453
L4425 22434
L4416 22406
L4397 22387
L4378 22378
L4341 22368
L4313 22368
L4275 22378
L4256 22387
L4238 22406
L4228 22434
L4228 22453
L4238 22481
L4247 22490
" />
<path d="M4247 22565
L4238 22575
L4228 22593
L4228 22640
L4238 22659
L4247 22668
L4266 22678
L4285 22678
L4313 22668
L4425 22556
L4425 22678
" />
<g transform="rotate(-90 3836.61 9523.62)">
<text x="3836.61" y="9622.05"
textLength="348.5" font-size="262.467" lengthAdjust="spacingAndGlyphs"
text-anchor="middle" opacity="0">C3</text>
</g>
<path d="M3906 9490
L3916 9481
L3925 9453
L3925 9434
L3916 9406
L3897 9387
L3878 9378
L3841 9368
L3813 9368
L3775 9378
L3756 9387
L3738 9406
L3728 9434
L3728 9453
L3738 9481
L3747 9490
" />
<path d="M3728 9556
L3728 9678
L3803 9612
L3803 9640
L3813 9659
L3822 9668
L3841 9678
L3888 9678
L3906 9668
L3916 9659
L3925 9640
L3925 9584
L3916 9565
L3906 9556
" />
<g transform="rotate(-90 3210.63 21213.6)">
<text x="3210.63" y="21312"
textLength="348.5" font-size="262.467" lengthAdjust="spacingAndGlyphs"
text-anchor="middle" opacity="0">R1</text>
</g>
<path d="M3299 21180
L3205 21115
" />
<path d="M3299 21068
L3102 21068
L3102 21143
L3112 21162
L3121 21171
L3140 21180
L3168 21180
L3187 21171
L3196 21162
L3205 21143
L3205 21068
" />
<path d="M3299 21368
L3299 21255
" />
<path d="M3299 21312
L3102 21312
L3130 21293
L3149 21274
L3159 21255
" />
<text x="3523.62" y="19809.1"
textLength="348.5" font-size="262.467" lengthAdjust="spacingAndGlyphs"
text-anchor="middle" opacity="0">R2</text>
<path d="M3556 19799
L3622 19705
" />
<path d="M3668 19799
L3668 19602
L3593 19602
L3575 19612
L3565 19621
L3556 19640
L3556 19668
L3565 19687
L3575 19696
L3593 19705
L3668 19705
" />
<path d="M3481 19621
L3472 19612
L3453 19602
L3406 19602
L3387 19612
L3378 19621
L3368 19640
L3368 19659
L3378 19687
L3490 19799
L3368 19799
" />
<g transform="rotate(-90 2460.63 18773.6)">
<text x="2460.63" y="18872"
textLength="348.5" font-size="262.467" lengthAdjust="spacingAndGlyphs"
text-anchor="middle" opacity="0">R3</text>
</g>
<path d="M2549 18740
L2455 18675
" />
<path d="M2549 18628
L2352 18628
L2352 18703
L2362 18722
L2371 18731
L2390 18740
L2418 18740
L2437 18731
L2446 18722
L2455 18703
L2455 18628
" />
<path d="M2352 18806
L2352 18928
L2427 18862
L2427 18890
L2437 18909
L2446 18918
L2465 18928
L2512 18928
L2530 18918
L2540 18909
L2549 18890
L2549 18834
L2540 18815
L2530 18806
" />
<text x="4023.62" y="6059.06"
textLength="348.5" font-size="262.467" lengthAdjust="spacingAndGlyphs"
text-anchor="middle" opacity="0">R4</text>
<path d="M4056 6049
L4122 5955
" />
<path d="M4168 6049
L4168 5852
L4093 5852
L4075 5862
L4065 5871
L4056 5890
L4056 5918
L4065 5937
L4075 5946
L4093 5955
L4168 5955
" />
<path d="M3887 5918
L3887 6049
" />
<path d="M3934 5843
L3981 5984
L3859 5984
" />
<g transform="rotate(-90 4710.63 6773.62)">
<text x="4710.63" y="6872.05"
textLength="348.5" font-size="262.467" lengthAdjust="spacingAndGlyphs"
text-anchor="middle" opacity="0">R5</text>
</g>
<path d="M4799 6740
L4705 6675
" />
<path d="M4799 6628
L4602 6628
L4602 6703
L4612 6722
L4621 6731
L4640 6740
L4668 6740
L4687 6731
L4696 6722
L4705 6703
L4705 6628
" />
<path d="M4602 6918
L4602 6825
L4696 6815
L4687 6825
L4677 6843
L4677 6890
L4687 6909
L4696 6918
L4715 6928
L4762 6928
L4780 6918
L4790 6909
L4799 6890
L4799 6843
L4790 6825
L4780 6815
" />
<text x="11673.6" y="5572.05"
textLength="348.5" font-size="262.467" lengthAdjust="spacingAndGlyphs"
text-anchor="middle" opacity="0">R7</text>
<path d="M11706 5562
L11772 5468
" />
<path d="M11818 5562
L11818 5365
L11743 5365
L11725 5375
L11715 5384
L11706 5403
L11706 5431
L11715 5450
L11725 5459
L11743 5468
L11818 5468
" />
<path d="M11640 5365
L11509 5365
L11593 5562
" />
<text x="10963.6" y="2422.05"
textLength="348.5" font-size="262.467" lengthAdjust="spacingAndGlyphs"
text-anchor="middle" opacity="0">R8</text>
<path d="M10996 2412
L11062 2318
" />
<path d="M11108 2412
L11108 2215
L11033 2215
L11015 2225
L11005 2234
L10996 2253
L10996 2281
L11005 2300
L11015 2309
L11033 2318
L11108 2318
" />
<path d="M10883 2300
L10902 2290
L10912 2281
L10921 2262
L10921 2253
L10912 2234
L10902 2225
L10883 2215
L10846 2215
L10827 2225
L10818 2234
L10808 2253
L10808 2262
L10818 2281
L10827 2290
L10846 2300
L10883 2300
L10902 2309
L10912 2318
L10921 2337
L10921 2375
L10912 2393
L10902 2403
L10883 2412
L10846 2412
L10827 2403
L10818 2393
L10808 2375
L10808 2337
L10818 2318
L10827 2309
L10846 2300
" />
<text x="12273.6" y="5572.05"
textLength="348.5" font-size="262.467" lengthAdjust="spacingAndGlyphs"
text-anchor="middle" opacity="0">R9</text>
<path d="M12306 5562
L12372 5468
" />
<path d="M12418 5562
L12418 5365
L12343 5365
L12325 5375
L12315 5384
L12306 5403
L12306 5431
L12315 5450
L12325 5459
L12343 5468
L12418 5468
" />
<path d="M12212 5562
L12175 5562
L12156 5553
L12147 5543
L12128 5515
L12118 5478
L12118 5403
L12128 5384
L12137 5375
L12156 5365
L12193 5365
L12212 5375
L12222 5384
L12231 5403
L12231 5450
L12222 5468
L12212 5478
L12193 5487
L12156 5487
L12137 5478
L12128 5468
L12118 5450
" />
<text x="12273.6" y="2422.05"
textLength="535.977" font-size="262.467" lengthAdjust="spacingAndGlyphs"
text-anchor="middle" opacity="0">R10</text>
<path d="M12400 2412
L12465 2318
" />
<path d="M12512 2412
L12512 2215
L12437 2215
L12418 2225
L12409 2234
L12400 2253
L12400 2281
L12409 2300
L12418 2309
L12437 2318
L12512 2318
" />
<path d="M12212 2412
L12325 2412
" />
<path d="M12268 2412
L12268 2215
L12287 2243
L12306 2262
L12325 2272
" />
<path d="M12090 2215
L12072 2215
L12053 2225
L12043 2234
L12034 2253
L12025 2290
L12025 2337
L12034 2375
L12043 2393
L12053 2403
L12072 2412
L12090 2412
L12109 2403
L12118 2393
L12128 2375
L12137 2337
L12137 2290
L12128 2253
L12118 2234
L12109 2225
L12090 2215
" />
<text x="11073.6" y="5572.05"
textLength="535.977" font-size="262.467" lengthAdjust="spacingAndGlyphs"
text-anchor="middle" opacity="0">R11</text>
<path d="M11200 5562
L11265 5468
" />
<path d="M11312 5562
L11312 5365
L11237 5365
L11218 5375
L11209 5384
L11200 5403
L11200 5431
L11209 5450
L11218 5459
L11237 5468
L11312 5468
" />
<path d="M11012 5562
L11125 5562
" />
<path d="M11068 5562
L11068 5365
L11087 5393
L11106 5412
L11125 5422
" />
<path d="M10825 5562
L10937 5562
" />
<path d="M10881 5562
L10881 5365
L10900 5393
L10918 5412
L10937 5422
" />
<g transform="rotate(-90 8573.62 4563.58)">
<text x="8573.62" y="4662.01"
textLength="535.977" font-size="262.467" lengthAdjust="spacingAndGlyphs"
text-anchor="middle" opacity="0">R13</text>
</g>
<path d="M8662 4437
L8568 4371
" />
<path d="M8662 4324
L8465 4324
L8465 4399
L8475 4418
L8484 4427
L8503 4437
L8531 4437
L8550 4427
L8559 4418
L8568 4399
L8568 4324
" />
<path d="M8662 4624
L8662 4512
" />
<path d="M8662 4568
L8465 4568
L8493 4549
L8512 4530
L8522 4512
" />
<path d="M8465 4690
L8465 4811
L8540 4746
L8540 4774
L8550 4793
L8559 4802
L8578 4811
L8625 4811
L8643 4802
L8653 4793
L8662 4774
L8662 4718
L8653 4699
L8643 4690
" />
<g transform="rotate(-90 8836.61 20773.6)">
<text x="8836.61" y="20872"
textLength="535.977" font-size="262.467" lengthAdjust="spacingAndGlyphs"
text-anchor="middle" opacity="0">R14</text>
</g>
<path d="M8925 20647
L8831 20581
" />
<path d="M8925 20534
L8728 20534
L8728 20609
L8738 20628
L8747 20637
L8766 20647
L8794 20647
L8813 20637
L8822 20628
L8831 20609
L8831 20534
" />
<path d="M8925 20834
L8925 20722
" />
<path d="M8925 20778
L8728 20778
L8756 20759
L8775 20740
L8785 20722
" />
<path d="M8794 21003
L8925 21003
" />
<path d="M8719 20956
L8860 20909
L8860 21031
" />
<text x="17073.6" y="11172"
textLength="535.977" font-size="262.467" lengthAdjust="spacingAndGlyphs"
text-anchor="middle" opacity="0">R15</text>
<path d="M17200 11162
L17265 11068
" />
<path d="M17312 11162
L17312 10965
L17237 10965
L17218 10975
L17209 10984
L17200 11003
L17200 11031
L17209 11050
L17218 11059
L17237 11068
L17312 11068
" />
<path d="M17012 11162
L17125 11162
" />
<path d="M17068 11162
L17068 10965
L17087 10993
L17106 11012
L17125 11022
" />
<path d="M16834 10965
L16928 10965
L16937 11059
L16928 11050
L16909 11040
L16862 11040
L16843 11050
L16834 11059
L16825 11078
L16825 11125
L16834 11143
L16843 11153
L16862 11162
L16909 11162
L16928 11153
L16937 11143
" />
<text x="17973.6" y="12072"
textLength="535.977" font-size="262.467" lengthAdjust="spacingAndGlyphs"
text-anchor="middle" opacity="0">R16</text>
<path d="M18100 12062
L18165 11968
" />
<path d="M18212 12062
L18212 11865
L18137 11865
L18118 11875
L18109 11884
L18100 11903
L18100 11931
L18109 11950
L18118 11959
L18137 11968
L18212 11968
" />
<path d="M17912 12062
L18025 12062
" />
<path d="M17968 12062
L17968 11865
L17987 11893
L18006 11912
L18025 11922
" />
<path d="M17743 11865
L17781 11865
L17800 11875
L17809 11884
L17828 11912
L17837 11950
L17837 12025
L17828 12043
L17818 12053
L17800 12062
L17762 12062
L17743 12053
L17734 12043
L17725 12025
L17725 11978
L17734 11959
L17743 11950
L17762 11940
L17800 11940
L17818 11950
L17828 11959
L17837 11978
" />
<text x="17373.6" y="12072"
textLength="535.977" font-size="262.467" lengthAdjust="spacingAndGlyphs"
text-anchor="middle" opacity="0">R17</text>
<path d="M17500 12062
L17565 11968
" />
<path d="M17612 12062
L17612 11865
L17537 11865
L17518 11875
L17509 11884
L17500 11903
L17500 11931
L17509 11950
L17518 11959
L17537 11968
L17612 11968
" />
<path d="M17312 12062
L17425 12062
" />
<path d="M17368 12062
L17368 11865
L17387 11893
L17406 11912
L17425 11922
" />
<path d="M17247 11865
L17115 11865
L17200 12062
" />
<g transform="rotate(-90 16673.6 12373.6)">
<text x="16673.6" y="12472"
textLength="535.977" font-size="262.467" lengthAdjust="spacingAndGlyphs"
text-anchor="middle" opacity="0">R18</text>
</g>
<path d="M16762 12247
L16668 12181
" />
<path d="M16762 12134
L16565 12134
L16565 12209
L16575 12228
L16584 12237
L16603 12247
L16631 12247
L16650 12237
L16659 12228
L16668 12209
L16668 12134
" />
<path d="M16762 12434
L16762 12322
" />
<path d="M16762 12378
L16565 12378
L16593 12359
L16612 12340
L16622 12322
" />
<path d="M16650 12547
L16640 12528
L16631 12518
L16612 12509
L16603 12509
L16584 12518
L16575 12528
L16565 12547
L16565 12584
L16575 12603
L16584 12612
L16603 12622
L16612 12622
L16631 12612
L16640 12603
L16650 12584
L16650 12547
L16659 12528
L16668 12518
L16687 12509
L16725 12509
L16743 12518
L16753 12528
L16762 12547
L16762 12584
L16753 12603
L16743 12612
L16725 12622
L16687 12622
L16668 12612
L16659 12603
L16650 12584
" />
<g transform="rotate(-90 15273.6 12373.6)">
<text x="15273.6" y="12472"
textLength="535.977" font-size="262.467" lengthAdjust="spacingAndGlyphs"
text-anchor="middle" opacity="0">R19</text>
</g>
<path d="M15362 12247
L15268 12181
" />
<path d="M15362 12134
L15165 12134
L15165 12209
L15175 12228
L15184 12237
L15203 12247
L15231 12247
L15250 12237
L15259 12228
L15268 12209
L15268 12134
" />
<path d="M15362 12434
L15362 12322
" />
<path d="M15362 12378
L15165 12378
L15193 12359
L15212 12340
L15222 12322
" />
<path d="M15362 12528
L15362 12565
L15353 12584
L15343 12593
L15315 12612
L15278 12622
L15203 12622
L15184 12612
L15175 12603
L15165 12584
L15165 12547
L15175 12528
L15184 12518
L15203 12509
L15250 12509
L15268 12518
L15278 12528
L15287 12547
L15287 12584
L15278 12603
L15268 12612
L15250 12622
" />
<text x="17973.6" y="10572"
textLength="535.977" font-size="262.467" lengthAdjust="spacingAndGlyphs"
text-anchor="middle" opacity="0">R20</text>
<path d="M18100 10562
L18165 10468
" />
<path d="M18212 10562
L18212 10365
L18137 10365
L18118 10375
L18109 10384
L18100 10403
L18100 10431
L18109 10450
L18118 10459
L18137 10468
L18212 10468
" />
<path d="M18025 10384
L18015 10375
L17997 10365
L17950 10365
L17931 10375
L17922 10384
L17912 10403
L17912 10422
L17922 10450
L18034 10562
L17912 10562
" />
<path d="M17790 10365
L17772 10365
L17753 10375
L17743 10384
L17734 10403
L17725 10440
L17725 10487
L17734 10525
L17743 10543
L17753 10553
L17772 10562
L17790 10562
L17809 10553
L17818 10543
L17828 10525
L17837 10487
L17837 10440
L17828 10403
L17818 10384
L17809 10375
L17790 10365
" />
<text x="13333.7" y="12772"
textLength="535.977" font-size="262.467" lengthAdjust="spacingAndGlyphs"
text-anchor="middle" opacity="0">R21</text>
<path d="M13460 12762
L13525 12668
" />
<path d="M13572 12762
L13572 12565
L13497 12565
L13478 12575
L13469 12584
L13460 12603
L13460 12631
L13469 12650
L13478 12659
L13497 12668
L13572 12668
" />
<path d="M13385 12584
L13375 12575
L13357 12565
L13310 12565
L13291 12575
L13282 12584
L13272 12603
L13272 12622
L13282 12650
L13394 12762
L13272 12762
" />
<path d="M13085 12762
L13197 12762
" />
<path d="M13141 12762
L13141 12565
L13160 12593
L13178 12612
L13197 12622
" />
<text x="13213.6" y="14072"
textLength="535.977" font-size="262.467" lengthAdjust="spacingAndGlyphs"
text-anchor="middle" opacity="0">R22</text>
<path d="M13340 14062
L13405 13968
" />
<path d="M13452 14062
L13452 13865
L13377 13865
L13358 13875
L13349 13884
L13340 13903
L13340 13931
L13349 13950
L13358 13959
L13377 13968
L13452 13968
" />
<path d="M13265 13884
L13255 13875
L13237 13865
L13190 13865
L13171 13875
L13162 13884
L13152 13903
L13152 13922
L13162 13950
L13274 14062
L13152 14062
" />
<path d="M13077 13884
L13068 13875
L13049 13865
L13002 13865
L12983 13875
L12974 13884
L12965 13903
L12965 13922
L12974 13950
L13087 14062
L12965 14062
" />
<g transform="rotate(-90 13086.6 8963.58)">
<text x="13086.6" y="9062.01"
textLength="348.5" font-size="262.467" lengthAdjust="spacingAndGlyphs"
text-anchor="middle" opacity="0">R6</text>
</g>
<path d="M13175 8930
L13081 8865
" />
<path d="M13175 8818
L12978 8818
L12978 8893
L12988 8912
L12997 8921
L13016 8930
L13044 8930
L13063 8921
L13072 8912
L13081 8893
L13081 8818
" />
<path d="M12978 9099
L12978 9062
L12988 9043
L12997 9033
L13025 9015
L13063 9005
L13138 9005
L13156 9015
L13166 9024
L13175 9043
L13175 9080
L13166 9099
L13156 9108
L13138 9118
L13091 9118
L13072 9108
L13063 9099
L13053 9080
L13053 9043
L13063 9024
L13072 9015
L13091 9005
" />
<text x="12563.6" y="22885"
textLength="348.5" font-size="262.467" lengthAdjust="spacingAndGlyphs"
text-anchor="middle" opacity="0">C6</text>
<path d="M12596 22856
L12605 22866
L12633 22875
L12652 22875
L12680 22866
L12699 22847
L12708 22828
L12718 22791
L12718 22763
L12708 22725
L12699 22706
L12680 22688
L12652 22678
L12633 22678
L12605 22688
L12596 22697
" />
<path d="M12427 22678
L12465 22678
L12483 22688
L12493 22697
L12512 22725
L12521 22763
L12521 22838
L12512 22856
L12502 22866
L12483 22875
L12446 22875
L12427 22866
L12418 22856
L12408 22838
L12408 22791
L12418 22772
L12427 22763
L12446 22753
L12483 22753
L12502 22763
L12512 22772
L12521 22791
" />
<g >
</g>
</g>
<g style="fill:#000000; fill-opacity:0.0; 
stroke:#000000; stroke-width:27.5591; stroke-opacity:1; 
stroke-linecap:round; stroke-linejoin:round;">
</g>
<g style="fill:#C2C200; fill-opacity:0.0; 
stroke:#C2C200; stroke-width:27.5591; stroke-opacity:1; 
stroke-linecap:round; stroke-linejoin:round;">
</g>
<g style="fill:#C2C200; fill-opacity:0.0; 
stroke:#C2C200; stroke-width:19.685; stroke-opacity:1; 
stroke-linecap:round; stroke-linejoin:round;">
<path d="M19773 23
L1373 23
" />
<path d="M19773 24023
L19773 23
" />
<path d="M1373 24023
L19773 24023
" />
<path d="M1373 23
L1373 24023
" />
<g >
</g>
<g >
</g>
<g >
</g>
<g >
</g>
<g >
</g>
<g >
</g>
<g >
</g>
<g >
</g>
<g >
</g>
<g >
</g>
<g >
</g>
<g >
</g>
<g >
</g>
<g >
</g>
<g >
</g>
<g >
</g>
<g >
</g>
<g >
</g>
<g >
</g>
<g >
</g>
<g >
</g>
<g >
</g>
<g >
</g>
<g >
</g>
<g >
</g>
<g >
</g>
<g >
</g>
<g >
</g>
<g >
</g>
<g >
</g>
<g >
</g>
<g >
</g>
<g >
</g>
<g >
</g>
<g >
</g>
<g >
</g>
<g >
</g>
<g >
</g>
<g >
</g>
<g >
</g>
<g >
</g>
<g >
</g>
<g >
</g>
<g >
</g>
<g >
</g>
<g >
</g>
<g >
</g>
<g >
</g>
<g >
</g>
<g >
</g>
<g >
</g>
<g >
</g>
<g >
</g>
<g >
</g>
<g >
</g>
<g >
</g>
<g >
</g>
</g> 
</svg>
