EESchema Schematic File Version 4
EELAYER 30 0
EELAYER END
$Descr A4 11693 8268
encoding utf-8
Sheet 2 6
Title ""
Date ""
Rev ""
Comp ""
Comment1 ""
Comment2 ""
Comment3 ""
Comment4 ""
$EndDescr
Text Label 5750 4850 0    50   ~ 0
dev_mic
Text Label 5750 4200 0    50   ~ 0
dev_sp
Text Label 4400 4200 2    50   ~ 0
radio_mic
Text Label 4400 4850 2    50   ~ 0
radio_sp
$Comp
L power:GND #PWR0101
U 1 1 5F4B0036
P 4750 5400
F 0 "#PWR0101" H 4750 5150 50  0001 C CNN
F 1 "GND" H 4755 5227 50  0000 C CNN
F 2 "" H 4750 5400 50  0001 C CNN
F 3 "" H 4750 5400 50  0001 C CNN
	1    4750 5400
	1    0    0    -1  
$EndComp
$Comp
L Device:C C1
U 1 1 5F4B0201
P 4750 4850
F 0 "C1" V 4498 4850 50  0000 C CNN
F 1 ".1u" V 4589 4850 50  0000 C CNN
F 2 "Capacitor_SMD:C_0603_1608Metric" H 4788 4700 50  0001 C CNN
F 3 "~" H 4750 4850 50  0001 C CNN
F 4 "399-1099-1-ND" H 4750 4850 50  0001 C CNN "Partnum"
	1    4750 4850
	0    1    1    0   
$EndComp
$Comp
L Device:C C3
U 1 1 5F4B05CE
P 5000 4200
F 0 "C3" V 5252 4200 50  0000 C CNN
F 1 ".1u" V 5161 4200 50  0000 C CNN
F 2 "Capacitor_SMD:C_0603_1608Metric" H 5038 4050 50  0001 C CNN
F 3 "~" H 5000 4200 50  0001 C CNN
F 4 "399-1099-1-ND" V 5000 4200 50  0001 C CNN "Partnum"
	1    5000 4200
	0    -1   -1   0   
$EndComp
$Comp
L Device:C C2
U 1 1 5F4B0775
P 5500 4850
F 0 "C2" V 5248 4850 50  0000 C CNN
F 1 ".1u" V 5339 4850 50  0000 C CNN
F 2 "Capacitor_SMD:C_0603_1608Metric" H 5538 4700 50  0001 C CNN
F 3 "~" H 5500 4850 50  0001 C CNN
F 4 "399-1099-1-ND" H 5500 4850 50  0001 C CNN "Partnum"
	1    5500 4850
	0    1    1    0   
$EndComp
$Comp
L Device:R R1
U 1 1 5F4B09B4
P 5150 4850
F 0 "R1" V 5357 4850 50  0000 C CNN
F 1 "10k" V 5266 4850 50  0000 C CNN
F 2 "Resistor_SMD:R_0603_1608Metric" V 5080 4850 50  0001 C CNN
F 3 "~" H 5150 4850 50  0001 C CNN
F 4 "311-10.0KHRCT-ND" H 5150 4850 50  0001 C CNN "Partnum"
	1    5150 4850
	0    -1   -1   0   
$EndComp
$Comp
L Device:R R2
U 1 1 5F4B0B2F
P 4950 5100
F 0 "R2" H 5020 5146 50  0000 L CNN
F 1 "2.2k" H 5020 5055 50  0000 L CNN
F 2 "Resistor_SMD:R_0603_1608Metric" V 4880 5100 50  0001 C CNN
F 3 "~" H 4950 5100 50  0001 C CNN
F 4 "P2.2KGCT-ND" H 4950 5100 50  0001 C CNN "Partnum"
	1    4950 5100
	1    0    0    -1  
$EndComp
$Comp
L Device:R R3
U 1 1 5F4B0DC2
P 4550 5100
F 0 "R3" H 4620 5146 50  0000 L CNN
F 1 "1.8k" H 4620 5055 50  0000 L CNN
F 2 "Resistor_SMD:R_0603_1608Metric" V 4480 5100 50  0001 C CNN
F 3 "~" H 4550 5100 50  0001 C CNN
F 4 "RMCF0603JT1K80CT-ND" H 4550 5100 50  0001 C CNN "Partnum"
	1    4550 5100
	1    0    0    -1  
$EndComp
Wire Wire Line
	5650 4850 5750 4850
Wire Wire Line
	4900 4850 4950 4850
Wire Wire Line
	5150 4200 5750 4200
$Comp
L Connector:AudioJack3 J1
U 1 1 5F4E1C6E
P 1300 1750
F 0 "J1" H 1282 2075 50  0000 C CNN
F 1 "Radio3.5" H 1282 1984 50  0000 C CNN
F 2 "Jacks:Jack_3.5mm_UNXCLL" H 1300 1750 50  0001 C CNN
F 3 "~" H 1300 1750 50  0001 C CNN
	1    1300 1750
	1    0    0    -1  
$EndComp
$Comp
L Connector:AudioJack3 J2
U 1 1 5F4E2D8B
P 1300 2350
F 0 "J2" H 1282 2675 50  0000 C CNN
F 1 "Radio2.5" H 1282 2584 50  0000 C CNN
F 2 "Jacks:Jack_3.5mm_UNXCLL" H 1300 2350 50  0001 C CNN
F 3 "~" H 1300 2350 50  0001 C CNN
	1    1300 2350
	1    0    0    -1  
$EndComp
$Comp
L power:GND #PWR0102
U 1 1 5F4E4033
P 1700 2650
F 0 "#PWR0102" H 1700 2400 50  0001 C CNN
F 1 "GND" H 1705 2477 50  0000 C CNN
F 2 "" H 1700 2650 50  0001 C CNN
F 3 "" H 1700 2650 50  0001 C CNN
	1    1700 2650
	1    0    0    -1  
$EndComp
Wire Wire Line
	1500 2250 1700 2250
Wire Wire Line
	1700 2250 1700 2650
Text Label 1700 1650 0    50   ~ 0
radio_ptt
Text Label 1700 1750 0    50   ~ 0
radio_mic
Text Label 1800 2450 0    50   ~ 0
radio_sp
Wire Wire Line
	1500 2450 1800 2450
Wire Wire Line
	1500 1750 1700 1750
Wire Wire Line
	1500 1650 1700 1650
$Comp
L Connector:AudioJack3 J3
U 1 1 5F4E925F
P 10150 1850
F 0 "J3" H 9870 1875 50  0000 R CNN
F 1 "DevSp" H 9870 1784 50  0000 R CNN
F 2 "Jacks:Jack_3.5mm_UNXCLL" H 10150 1850 50  0001 C CNN
F 3 "~" H 10150 1850 50  0001 C CNN
	1    10150 1850
	-1   0    0    -1  
$EndComp
$Comp
L Connector:AudioJack3 J4
U 1 1 5F4E9265
P 10150 2450
F 0 "J4" H 9870 2475 50  0000 R CNN
F 1 "DevMic" H 9870 2384 50  0000 R CNN
F 2 "Jacks:Jack_3.5mm_UNXCLL" H 10150 2450 50  0001 C CNN
F 3 "~" H 10150 2450 50  0001 C CNN
	1    10150 2450
	-1   0    0    -1  
$EndComp
Text Label 9650 1950 2    50   ~ 0
dev_sp
Wire Wire Line
	9950 1950 9650 1950
Text Label 9600 2550 2    50   ~ 0
dev_mic
Wire Wire Line
	9600 2550 9950 2550
$Comp
L power:GND #PWR0103
U 1 1 5F4EDC95
P 9800 2650
F 0 "#PWR0103" H 9800 2400 50  0001 C CNN
F 1 "GND" H 9805 2477 50  0000 C CNN
F 2 "" H 9800 2650 50  0001 C CNN
F 3 "" H 9800 2650 50  0001 C CNN
	1    9800 2650
	1    0    0    -1  
$EndComp
Wire Wire Line
	9950 1750 9800 1750
Wire Wire Line
	9800 1750 9800 2350
Wire Wire Line
	9950 2350 9800 2350
Connection ~ 9800 2350
Wire Wire Line
	9800 2350 9800 2650
$Comp
L Transistor_BJT:2N3904 Q1
U 1 1 5F4EFFDE
P 5800 2850
F 0 "Q1" H 5990 2896 50  0000 L CNN
F 1 "2N3904" H 5990 2805 50  0000 L CNN
F 2 "Package_TO_SOT_THT:TO-92_Inline" H 6000 2775 50  0001 L CIN
F 3 "https://www.fairchildsemi.com/datasheets/2N/2N3904.pdf" H 5800 2850 50  0001 L CNN
	1    5800 2850
	1    0    0    -1  
$EndComp
$Comp
L power:GND #PWR0104
U 1 1 5F4F34C7
P 5900 3450
F 0 "#PWR0104" H 5900 3200 50  0001 C CNN
F 1 "GND" H 5905 3277 50  0000 C CNN
F 2 "" H 5900 3450 50  0001 C CNN
F 3 "" H 5900 3450 50  0001 C CNN
	1    5900 3450
	1    0    0    -1  
$EndComp
Wire Wire Line
	5900 3050 5900 3300
Text Label 5900 2500 1    50   ~ 0
radio_ptt
Wire Wire Line
	5900 2500 5900 2650
$Comp
L Device:R R4
U 1 1 5F4F711E
P 5000 3150
F 0 "R4" H 5070 3196 50  0000 L CNN
F 1 "47k" H 5070 3105 50  0000 L CNN
F 2 "Resistor_SMD:R_0603_1608Metric" V 4930 3150 50  0001 C CNN
F 3 "~" H 5000 3150 50  0001 C CNN
F 4 "311-47KGRCT-ND" H 5000 3150 50  0001 C CNN "Partnum"
	1    5000 3150
	1    0    0    -1  
$EndComp
Wire Wire Line
	5000 3300 5900 3300
Connection ~ 5900 3300
Wire Wire Line
	5900 3300 5900 3450
$Comp
L Device:R R5
U 1 1 5F4F8B11
P 5350 2850
F 0 "R5" V 5557 2850 50  0000 C CNN
F 1 "1k" V 5466 2850 50  0000 C CNN
F 2 "Resistor_SMD:R_0603_1608Metric" V 5280 2850 50  0001 C CNN
F 3 "~" H 5350 2850 50  0001 C CNN
F 4 "311-1.0KGRCT-ND" H 5350 2850 50  0001 C CNN "Partnum"
	1    5350 2850
	0    -1   -1   0   
$EndComp
Wire Wire Line
	5500 2850 5600 2850
Wire Wire Line
	5000 3000 5000 2850
Wire Wire Line
	5000 2850 5200 2850
Wire Wire Line
	5000 2850 4750 2850
Connection ~ 5000 2850
Wire Wire Line
	4550 4950 4550 4850
Wire Wire Line
	4550 4850 4600 4850
Wire Wire Line
	4550 5250 4550 5300
Wire Wire Line
	5300 4850 5350 4850
Wire Wire Line
	4550 5300 4750 5300
Wire Wire Line
	4950 4950 4950 4850
Connection ~ 4950 4850
Wire Wire Line
	4950 4850 5000 4850
Wire Wire Line
	4950 5250 4950 5300
Wire Wire Line
	4750 5400 4750 5300
Connection ~ 4750 5300
Wire Wire Line
	4750 5300 4950 5300
Wire Wire Line
	4400 4200 4850 4200
Wire Wire Line
	4400 4850 4550 4850
Connection ~ 4550 4850
Text HLabel 4750 2850 0    50   Input ~ 0
ptt
$EndSCHEMATC
