EESchema Schematic File Version 4
EELAYER 30 0
EELAYER END
$Descr A4 11693 8268
encoding utf-8
Sheet 4 6
Title ""
Date ""
Rev ""
Comp ""
Comment1 ""
Comment2 ""
Comment3 ""
Comment4 ""
$EndDescr
$Comp
L Transistor_BJT:TIP120 Q5
U 1 1 5F57F339
P 4750 3300
F 0 "Q5" H 4957 3346 50  0000 L CNN
F 1 "TIP120" H 4957 3255 50  0000 L CNN
F 2 "Package_TO_SOT_THT:TO-220-3_Vertical" H 4950 3225 50  0001 L CIN
F 3 "http://www.fairchildsemi.com/ds/TI/TIP120.pdf" H 4750 3300 50  0001 L CNN
	1    4750 3300
	1    0    0    -1  
$EndComp
$Comp
L Device:R R14
U 1 1 5F57FABB
P 4250 3300
F 0 "R14" V 4043 3300 50  0000 C CNN
F 1 "10k" V 4134 3300 50  0000 C CNN
F 2 "Resistor_SMD:R_0603_1608Metric" V 4180 3300 50  0001 C CNN
F 3 "~" H 4250 3300 50  0001 C CNN
F 4 "311-10.0KHRCT-ND" H 4250 3300 50  0001 C CNN "Partnum"
	1    4250 3300
	0    1    1    0   
$EndComp
$Comp
L power:GND #PWR0130
U 1 1 5F57FDD7
P 4850 3800
F 0 "#PWR0130" H 4850 3550 50  0001 C CNN
F 1 "GND" H 4855 3627 50  0000 C CNN
F 2 "" H 4850 3800 50  0001 C CNN
F 3 "" H 4850 3800 50  0001 C CNN
	1    4850 3800
	1    0    0    -1  
$EndComp
$Comp
L power:+12V #PWR0131
U 1 1 5F580271
P 4850 2600
F 0 "#PWR0131" H 4850 2450 50  0001 C CNN
F 1 "+12V" H 4865 2773 50  0000 C CNN
F 2 "" H 4850 2600 50  0001 C CNN
F 3 "" H 4850 2600 50  0001 C CNN
	1    4850 2600
	1    0    0    -1  
$EndComp
Wire Wire Line
	3900 3300 4100 3300
Wire Wire Line
	4400 3300 4550 3300
$Comp
L Connector_Generic:Conn_01x02 J15
U 1 1 5F58233F
P 5050 2800
F 0 "J15" H 5130 2792 50  0000 L CNN
F 1 "Conn_01x02" H 5130 2701 50  0000 L CNN
F 2 "Connector_JST:JST_EH_B2B-EH-A_1x02_P2.50mm_Vertical" H 5050 2800 50  0001 C CNN
F 3 "~" H 5050 2800 50  0001 C CNN
	1    5050 2800
	1    0    0    -1  
$EndComp
Text HLabel 3900 3300 0    50   Input ~ 0
nav_light
Wire Wire Line
	4850 3100 4850 2900
Wire Wire Line
	4850 2800 4850 2600
Wire Wire Line
	4850 3500 4850 3800
$EndSCHEMATC
