EESchema Schematic File Version 4
EELAYER 30 0
EELAYER END
$Descr A4 11693 8268
encoding utf-8
Sheet 6 6
Title ""
Date ""
Rev ""
Comp ""
Comment1 ""
Comment2 ""
Comment3 ""
Comment4 ""
$EndDescr
$Comp
L power:+12V #PWR0135
U 1 1 5F59BFCB
P 3650 2700
F 0 "#PWR0135" H 3650 2550 50  0001 C CNN
F 1 "+12V" H 3665 2873 50  0000 C CNN
F 2 "" H 3650 2700 50  0001 C CNN
F 3 "" H 3650 2700 50  0001 C CNN
	1    3650 2700
	1    0    0    -1  
$EndComp
Wire Wire Line
	3650 2700 3650 3000
$Comp
L power:GND #PWR0136
U 1 1 5F59C45D
P 4050 3550
F 0 "#PWR0136" H 4050 3300 50  0001 C CNN
F 1 "GND" H 4055 3377 50  0000 C CNN
F 2 "" H 4050 3550 50  0001 C CNN
F 3 "" H 4050 3550 50  0001 C CNN
	1    4050 3550
	1    0    0    -1  
$EndComp
Wire Wire Line
	4050 3450 4050 3550
Connection ~ 4050 3450
Wire Wire Line
	4050 3450 4550 3450
Wire Wire Line
	3650 3050 3650 3000
Connection ~ 3650 3000
Wire Wire Line
	3650 3350 3650 3450
Wire Wire Line
	4550 3450 4550 3400
Wire Wire Line
	3650 3000 4050 3000
Wire Wire Line
	3650 3450 4050 3450
Wire Wire Line
	4050 3200 4050 3450
$Comp
L Device:L L1
U 1 1 5F59F326
P 5600 3200
F 0 "L1" V 5419 3200 50  0000 C CNN
F 1 "100u" V 5510 3200 50  0000 C CNN
F 2 "Inductor_THT:L_Axial_L11.0mm_D4.5mm_P5.08mm_Vertical_Fastron_MECC" H 5600 3200 50  0001 C CNN
F 3 "~" H 5600 3200 50  0001 C CNN
	1    5600 3200
	0    1    1    0   
$EndComp
Wire Wire Line
	6000 3350 6000 3200
Wire Wire Line
	6000 3200 5750 3200
Wire Wire Line
	6000 3650 6000 3850
$Comp
L power:GND #PWR0137
U 1 1 5F5A05E2
P 6000 3850
F 0 "#PWR0137" H 6000 3600 50  0001 C CNN
F 1 "GND" H 6005 3677 50  0000 C CNN
F 2 "" H 6000 3850 50  0001 C CNN
F 3 "" H 6000 3850 50  0001 C CNN
	1    6000 3850
	1    0    0    -1  
$EndComp
Wire Wire Line
	5450 3200 5200 3200
$Comp
L Device:R R21
U 1 1 5F5A12D5
P 6450 3400
F 0 "R21" H 6520 3446 50  0000 L CNN
F 1 "5.6k" H 6520 3355 50  0000 L CNN
F 2 "Resistor_SMD:R_0603_1608Metric" V 6380 3400 50  0001 C CNN
F 3 "~" H 6450 3400 50  0001 C CNN
F 4 "A129697CT-ND" H 6450 3400 50  0001 C CNN "Partnum"
	1    6450 3400
	1    0    0    -1  
$EndComp
$Comp
L Device:R R22
U 1 1 5F5A1C1E
P 6450 3850
F 0 "R22" H 6520 3896 50  0000 L CNN
F 1 "1k" H 6520 3805 50  0000 L CNN
F 2 "Resistor_SMD:R_0603_1608Metric" V 6380 3850 50  0001 C CNN
F 3 "~" H 6450 3850 50  0001 C CNN
F 4 "311-1.0KGRCT-ND" H 6450 3850 50  0001 C CNN "Partnum"
	1    6450 3850
	1    0    0    -1  
$EndComp
Wire Wire Line
	6450 3700 6450 3650
Wire Wire Line
	6450 3650 6250 3650
Wire Wire Line
	6250 3650 6250 3000
Wire Wire Line
	6250 3000 5050 3000
Connection ~ 6450 3650
Wire Wire Line
	6450 3650 6450 3550
Wire Wire Line
	6000 3200 6450 3200
Wire Wire Line
	6450 3200 6450 3250
Connection ~ 6000 3200
$Comp
L power:GND #PWR0138
U 1 1 5F5A294D
P 6450 4100
F 0 "#PWR0138" H 6450 3850 50  0001 C CNN
F 1 "GND" H 6455 3927 50  0000 C CNN
F 2 "" H 6450 4100 50  0001 C CNN
F 3 "" H 6450 4100 50  0001 C CNN
	1    6450 4100
	1    0    0    -1  
$EndComp
Wire Wire Line
	6450 4000 6450 4100
Connection ~ 6450 3200
Text Notes 6750 3000 0    50   ~ 0
Output should be 8.118V, from eq V=1.23(1+(5600/1000))
$Comp
L Device:CP C4
U 1 1 5F5A5068
P 3650 3200
F 0 "C4" H 3768 3246 50  0000 L CNN
F 1 "100u" H 3768 3155 50  0000 L CNN
F 2 "Capacitor_THT:CP_Radial_D7.5mm_P2.50mm" H 3688 3050 50  0001 C CNN
F 3 "~" H 3650 3200 50  0001 C CNN
F 4 "732-8598-1-ND" H 3650 3200 50  0001 C CNN "Partnum"
	1    3650 3200
	1    0    0    -1  
$EndComp
$Comp
L Device:CP C5
U 1 1 5F5A59D2
P 6000 3500
F 0 "C5" H 6118 3546 50  0000 L CNN
F 1 "1000u" H 6118 3455 50  0000 L CNN
F 2 "Capacitor_THT:CP_Radial_D10.0mm_P2.50mm" H 6038 3350 50  0001 C CNN
F 3 "~" H 6000 3500 50  0001 C CNN
F 4 "2616-RJA102M1CBK-1016S1-ND" H 6000 3500 50  0001 C CNN "Partnum"
	1    6000 3500
	1    0    0    -1  
$EndComp
Text HLabel 6900 3200 2    50   Input ~ 0
radio_power
Wire Wire Line
	6450 3200 6900 3200
$Comp
L power:GND #PWR0142
U 1 1 5F5858C7
P 5200 3750
F 0 "#PWR0142" H 5200 3500 50  0001 C CNN
F 1 "GND" H 5205 3577 50  0000 C CNN
F 2 "" H 5200 3750 50  0001 C CNN
F 3 "" H 5200 3750 50  0001 C CNN
	1    5200 3750
	1    0    0    -1  
$EndComp
Wire Wire Line
	5200 3750 5200 3650
Wire Wire Line
	5200 3350 5200 3200
Connection ~ 5200 3200
Wire Wire Line
	5200 3200 5050 3200
$Comp
L Regulator_Switching:LM2576HVT-ADJ U1
U 1 1 5F59BA1D
P 4550 3100
F 0 "U1" H 4550 3467 50  0000 C CNN
F 1 "LM2576HVT-ADJ" H 4550 3376 50  0000 C CNN
F 2 "Package_TO_SOT_THT:TO-220-5_Vertical" H 4550 2850 50  0001 L CIN
F 3 "http://www.ti.com/lit/ds/symlink/lm2576.pdf" H 4550 3100 50  0001 C CNN
F 4 "LM2576HVT-ADJ/NOPB-ND" H 4550 3100 50  0001 C CNN "Partnum"
	1    4550 3100
	1    0    0    -1  
$EndComp
$Comp
L Diode:MBR340 D1
U 1 1 5F5873EC
P 5200 3500
F 0 "D1" V 5154 3580 50  0000 L CNN
F 1 "MBR340" V 5245 3580 50  0000 L CNN
F 2 "Diode_THT:D_DO-201AD_P15.24mm_Horizontal" H 5200 3325 50  0001 C CNN
F 3 "http://www.onsemi.com/pub_link/Collateral/MBR340-D.PDF" H 5200 3500 50  0001 C CNN
	1    5200 3500
	0    1    1    0   
$EndComp
$EndSCHEMATC
