EESchema Schematic File Version 4
EELAYER 30 0
EELAYER END
$Descr A4 11693 8268
encoding utf-8
Sheet 5 6
Title ""
Date ""
Rev ""
Comp ""
Comment1 ""
Comment2 ""
Comment3 ""
Comment4 ""
$EndDescr
$Comp
L power:+15V #PWR0132
U 1 1 5F585000
P 3800 1150
F 0 "#PWR0132" H 3800 1000 50  0001 C CNN
F 1 "+15V" H 3815 1323 50  0000 C CNN
F 2 "" H 3800 1150 50  0001 C CNN
F 3 "" H 3800 1150 50  0001 C CNN
	1    3800 1150
	1    0    0    -1  
$EndComp
$Comp
L Transistor_BJT:2N3904 Q6
U 1 1 5F5852E0
P 3300 2250
F 0 "Q6" H 3490 2296 50  0000 L CNN
F 1 "2N3904" H 3490 2205 50  0000 L CNN
F 2 "Package_TO_SOT_THT:TO-92_Inline" H 3500 2175 50  0001 L CIN
F 3 "https://www.fairchildsemi.com/datasheets/2N/2N3904.pdf" H 3300 2250 50  0001 L CNN
	1    3300 2250
	1    0    0    -1  
$EndComp
$Comp
L Device:R R17
U 1 1 5F5855EA
P 3050 4100
F 0 "R17" H 3120 4146 50  0000 L CNN
F 1 "1k" H 3120 4055 50  0000 L CNN
F 2 "Resistor_SMD:R_0603_1608Metric" V 2980 4100 50  0001 C CNN
F 3 "~" H 3050 4100 50  0001 C CNN
F 4 "311-1.0KGRCT-ND" H 3050 4100 50  0001 C CNN "Partnum"
	1    3050 4100
	1    0    0    -1  
$EndComp
$Comp
L Device:R R16
U 1 1 5F585CE7
P 3050 3600
F 0 "R16" H 3120 3646 50  0000 L CNN
F 1 "3.9k" H 3120 3555 50  0000 L CNN
F 2 "Resistor_SMD:R_0603_1608Metric" V 2980 3600 50  0001 C CNN
F 3 "~" H 3050 3600 50  0001 C CNN
F 4 "2019-RK73B1JTTD392JCT-ND" H 3050 3600 50  0001 C CNN "Partnum"
	1    3050 3600
	1    0    0    -1  
$EndComp
Text HLabel 2550 3350 0    50   Input ~ 0
15v_tx
Text HLabel 4650 1700 2    50   Input ~ 0
15v_rx
Text HLabel 2500 2250 0    50   Input ~ 0
3.3v_tx
Text HLabel 2550 3850 0    50   Input ~ 0
3.3v_rx
Wire Wire Line
	2550 3350 3050 3350
Wire Wire Line
	3050 3350 3050 3450
$Comp
L power:GND #PWR0133
U 1 1 5F5878AF
P 3050 4500
F 0 "#PWR0133" H 3050 4250 50  0001 C CNN
F 1 "GND" H 3055 4327 50  0000 C CNN
F 2 "" H 3050 4500 50  0001 C CNN
F 3 "" H 3050 4500 50  0001 C CNN
	1    3050 4500
	1    0    0    -1  
$EndComp
Wire Wire Line
	3050 4500 3050 4250
Wire Wire Line
	3050 3950 3050 3850
Wire Wire Line
	2550 3850 3050 3850
Connection ~ 3050 3850
Wire Wire Line
	3050 3850 3050 3750
$Comp
L power:GND #PWR0134
U 1 1 5F58A654
P 4300 2600
F 0 "#PWR0134" H 4300 2350 50  0001 C CNN
F 1 "GND" H 4305 2427 50  0000 C CNN
F 2 "" H 4300 2600 50  0001 C CNN
F 3 "" H 4300 2600 50  0001 C CNN
	1    4300 2600
	1    0    0    -1  
$EndComp
$Comp
L Device:R R15
U 1 1 5F58FD78
P 2800 2250
F 0 "R15" H 2870 2296 50  0000 L CNN
F 1 "10k" H 2870 2205 50  0000 L CNN
F 2 "Resistor_SMD:R_0603_1608Metric" V 2730 2250 50  0001 C CNN
F 3 "~" H 2800 2250 50  0001 C CNN
F 4 "311-10.0KHRCT-ND" H 2800 2250 50  0001 C CNN "Partnum"
	1    2800 2250
	0    -1   -1   0   
$EndComp
Wire Wire Line
	2500 2250 2650 2250
Wire Wire Line
	2950 2250 3100 2250
$Comp
L Device:R R18
U 1 1 5F590863
P 3400 1600
F 0 "R18" H 3470 1646 50  0000 L CNN
F 1 "10k" H 3470 1555 50  0000 L CNN
F 2 "Resistor_SMD:R_0603_1608Metric" V 3330 1600 50  0001 C CNN
F 3 "~" H 3400 1600 50  0001 C CNN
F 4 "311-10.0KHRCT-ND" H 3400 1600 50  0001 C CNN "Partnum"
	1    3400 1600
	-1   0    0    1   
$EndComp
Wire Wire Line
	3400 1750 3400 1900
$Comp
L Device:R R19
U 1 1 5F5920E8
P 3700 1900
F 0 "R19" H 3770 1946 50  0000 L CNN
F 1 "10k" H 3770 1855 50  0000 L CNN
F 2 "Resistor_SMD:R_0603_1608Metric" V 3630 1900 50  0001 C CNN
F 3 "~" H 3700 1900 50  0001 C CNN
F 4 "311-10.0KHRCT-ND" H 3700 1900 50  0001 C CNN "Partnum"
	1    3700 1900
	0    1    1    0   
$EndComp
Wire Wire Line
	3550 1900 3400 1900
Connection ~ 3400 1900
Wire Wire Line
	3400 1900 3400 2050
$Comp
L Transistor_BJT:2N3904 Q7
U 1 1 5F592A64
P 4200 1900
F 0 "Q7" H 4390 1946 50  0000 L CNN
F 1 "2N3904" H 4390 1855 50  0000 L CNN
F 2 "Package_TO_SOT_THT:TO-92_Inline" H 4400 1825 50  0001 L CIN
F 3 "https://www.fairchildsemi.com/datasheets/2N/2N3904.pdf" H 4200 1900 50  0001 L CNN
	1    4200 1900
	1    0    0    -1  
$EndComp
Wire Wire Line
	3850 1900 4000 1900
Wire Wire Line
	4300 2100 4300 2500
Wire Wire Line
	3400 2450 3400 2500
Wire Wire Line
	3400 2500 4300 2500
Connection ~ 4300 2500
Wire Wire Line
	4300 2500 4300 2600
$Comp
L Device:R R20
U 1 1 5F595B37
P 4300 1450
F 0 "R20" H 4230 1404 50  0000 R CNN
F 1 "1k" H 4230 1495 50  0000 R CNN
F 2 "Resistor_SMD:R_0603_1608Metric" V 4230 1450 50  0001 C CNN
F 3 "~" H 4300 1450 50  0001 C CNN
F 4 "311-1.0KGRCT-ND" H 4300 1450 50  0001 C CNN "Partnum"
	1    4300 1450
	-1   0    0    1   
$EndComp
Wire Wire Line
	4300 1600 4300 1700
Wire Wire Line
	3800 1150 3800 1250
Wire Wire Line
	3800 1250 4300 1250
Wire Wire Line
	4300 1250 4300 1300
Wire Wire Line
	3800 1250 3400 1250
Wire Wire Line
	3400 1250 3400 1450
Connection ~ 3800 1250
Wire Wire Line
	4300 1700 4650 1700
Connection ~ 4300 1700
$EndSCHEMATC
